#############################################
# Written and designed by: 	Broken Arrow    #
#############################################

G53_1_missions = { 
	slot = 1
	generic = no
	ai = yes 
	has_country_shield = yes
	potential = { 
		OR = {
			tag = G53 
			AND = {
				tag = U27
				was_tag = G53
			}
		}
	 }

	G53_1_1_the_Gulf_of_Slaves = {
		icon = colonize_the_cape
		position = 1
		required_missions = {
		}

		provinces_to_highlight = {
			OR = { 
				area = empkeios_area
				area = elokos_area
			}
			NOT = {
				OR = {
					AND = {
						owned_by = ROOT
						is_core = ROOT
					}
					AND = {
						owner = {
							overlord_of = ROOT
						}
					}
				}
			}
		}

		trigger = {
			empkeios_area = {
				type = all
				OR = {
					AND = {
						owned_by = ROOT
						is_core = ROOT
					} 
					owner  = {
						overlord_of = ROOT
					}
				}
			}
			IF = {
				limit = {
					elokos_area = {
						type = any
						owner = {
							overlord_of = ROOT
						}
					}
				}
				OR = {
					AND = {
						overlord = {
							num_of_owned_provinces_with = {
								owner = {
									overlord_of = ROOT
								}
								area = elokos_area
								value = 2
							}
						}
						elokos_area = {
							type = any
							controlled_by = ROOT
							is_core = ROOT
						}
					}
					AND = {
						overlord = {
							num_of_owned_provinces_with = {
								owner = {
									overlord_of = ROOT
								}
								area = elokos_area
								value = 1
							}
						}
						ROOT = {
							num_of_owned_provinces_with = {
								controlled_by = ROOT
								OR = {
									is_core = ROOT
									is_colony = yes
								}
								area = elokos_area
								value = 2
							}
						}
					}
				}
			}
			ELSE = {
				num_of_owned_provinces_with = {
					controlled_by = ROOT
					is_core = ROOT
					area = elokos_area
					value = 3
				}
			}
		}

		effect = {
			custom_tooltip = G53_1_1_the_Gulf_of_Slaves_reward_tt
			hidden_effect = {
			empkeios_area = {
				limit = {
					owner = {
						overlord_of = ROOT
					}
				}
				cede_province = ROOT
			}
			elokos_area = {
				limit = {
					owner = {
						overlord_of = ROOT
					}
				}
				cede_province = ROOT
			}
			random_owned_province = {
				limit = {
					area = elokos_area
					NOT = {
						trade_goods = slaves
					}
					NOT = {
						trade_goods = gold
					}
				}
				change_trade_goods = slaves
			}
			random_owned_province = {
				limit = {
					area = elokos_area
					NOT = {
						trade_goods = slaves
					}
					NOT = {
						trade_goods = gold
					}
				}
				change_trade_goods = slaves
			}
			random_owned_province = {
				limit = {
					area = elokos_area
					NOT = {
						trade_goods = slaves
					}
					NOT = {
						trade_goods = gold
					}
				}
				change_trade_goods = slaves
			}
			every_owned_province = {
				limit = {
					trade_goods = slaves
				}
				add_base_production = 1
			}
			}
		}

		
	}

	G53_1_2_Establishment_Slaver_Guilds = {
		icon = mission_market
		position = 2
		required_missions = {
			G53_1_1_the_Gulf_of_Slaves
			G53_2_1_The_Chendhya_Route
		}

		provinces_to_highlight = { 
			province_id = 2595 # Empkeios
			NOT = {
				has_building = marketplace
			}
		}

		trigger = {
			2595 = {
				OR = {
					has_building = marketplace
					has_building = trade_depot
					has_building = stock_exchange
				}
			}
			1741 = {
				trade_share = {
					country = ROOT
					share = 15
				}
			}	
			estate_influence = {
				estate = estate_burghers
				influence = 60
			}
			estate_loyalty = {
    			estate = estate_burghers
    			loyalty = 50
			}
		}

		effect = {
			add_treasury = 100
			change_estate_land_share = {
				estate = estate_burghers
				share = 5
			}
			custom_tooltip = G53_3_3_In_Chendhyan_Fields_reward_tt
			hidden_effect = {
				set_country_flag = G53_slaver_guilds_flag
				random_province = {
					limit = {
						region = chendhya_region
						NOT = {
							province_id = 2591
						}
						NOT = {
							trade_goods = slaves
						}
						NOT = {
							trade_goods = gold
						}
					}
					change_trade_goods = slaves
				}
				random_province = {
					limit = {
						region = chendhya_region
						NOT = {
							province_id = 2591
						}
						NOT = {
							trade_goods = slaves
						}
						NOT = {
							trade_goods = gold
						}
					}
					change_trade_goods = slaves
				}
				random_province = {
					limit = {
						region = chendhya_region
						NOT = {
							province_id = 2591
						}
						NOT = {
							trade_goods = slaves
						}
						NOT = {
							trade_goods = gold
						}
					}
					change_trade_goods = slaves
				}
				random_province = {
					limit = {
						region = chendhya_region
						NOT = {
							province_id = 2591
						}
						NOT = {
							trade_goods = slaves
						}
						NOT = {
							trade_goods = gold
						}
					}
					change_trade_goods = slaves
				}
				random_province = {
					limit = {
						region = chendhya_region
						NOT = {
							province_id = 2591
						}
						NOT = {
							trade_goods = slaves
						}
						NOT = {
							trade_goods = gold
						}
					}
					change_trade_goods = slaves
				}
				country_event = {
					id = empkeios_events.1200
				}
			}
			country_event = {
				id = empkeios_events.1201
				days = 1
			}
		}
	}

	G53_1_3_Slave_Trade_Consolidation = {
		icon = mission_door_trade
		position = 3
		required_missions = {
			G53_1_2_Establishment_Slaver_Guilds
			G53_2_2_Foundation_Lawarund_Company
		}

		provinces_to_highlight = { 
			owned_by = ROOT
			is_core = ROOT
			trade_goods = slaves
			NOT = {
				base_production = 5	
			}
		}

		trigger = {
			num_of_mercenaries = 10
			num_of_owned_provinces_with = {
				value = 5
				trade_goods = slaves
			}
			custom_trigger_tooltip = {
				tooltip = G53_1_3_Slave_Trade_Consolidation_trigger_tt
				all_owned_province = {
					if = {
						limit = {
							trade_goods = slaves
						}
					base_production = 5
					}
				}
			}
		}

		effect = {
			if = {
				limit = {
					2595 = {
						province_has_center_of_trade_of_level = 1
					}
				}
				2595 = {
					add_center_of_trade_level = 1
				}
			}
			else_if = {
				limit = {
					2595 = {
						province_has_center_of_trade_of_level = 3
					}
				}
				2595 = {
					add_base_tax = 1
					add_base_production = 2
					add_base_manpower = 1
				}
			}
			else = {
				2595 = {
					center_of_trade = 2
				}
			}
			2595 = {
				add_permanent_province_modifier = {
					name = G53_Slave_Capital
					duration = -1
				}
			}
			hidden_effect = {
				country_event = {
					id = empkeios_events.1301
					# days = 3 # DEBUG
					days = 1825
					random = 730
				}
			}	
		}
	}
}


G53_2_missions = {
	slot = 2
	generic = no
	ai = yes 
	has_country_shield = yes
	potential = { 
		OR = {
			tag = G53 
			AND = {
				tag = U27
				was_tag = G53
			}
		}
	 }

	G53_2_1_The_Chendhya_Route = {
		icon = mission_merchant_trip
		position = 1
		required_missions = {
		}

		provinces_to_highlight = {
			region = chendhya_region 
			IF = {
				limit = {
					exists = H23 # Kaerog
				}
				owned_by = H23
			}
			ELSE_IF = {
				limit = {
					exists = H28 #Durisayar
				 }
				 owned_by = H28
			}
			ELSE_IF = {
				limit = {
					exists = H29 #Tsidarok
				 }
				 owned_by = H29
			}
			ELSE = {
				NOT = {
					is_core = ROOT
				}
			}
		}

		trigger = {
			IF = {
				limit = {
					exists = H23 # Kaerog
				}
				H23 = {
					NOT = { war_with = ROOT }
					has_opinion = {
						who = ROOT
						value = 75
					}
				}

			}
			ELSE_IF = {
				limit = {
					exists = H28 #Durisayar
				 }
				 H28 = {
					NOT = { war_with = ROOT }
					has_opinion = {
						who = ROOT
						value = 75
					}
				}
			}
			ELSE_IF = {
				limit = {
					exists = H29 #Tsidarok
				 }
				 H29 = {
					NOT = { war_with = ROOT }
					has_opinion = {
						who = ROOT
						value = 75
					}
				}
			}
			ELSE = {
				num_of_owned_provinces_with = {
					region = chendhya_region
					controlled_by = ROOT
					is_core = ROOT
					value = 5
				}
			}
		}

		effect = {
			IF = {
				limit = {
					exists = H23 # Kaerog
				}
				custom_tooltip = G53_2_1_The_Chendhya_Route_reward1_tt
				hidden_effect = {
				H23 = {
					country_event = {
						id = empkeios_events.2101
						days = 3
					}
				}
				}
			}
			ELSE_IF = {
				limit = {
					exists = H28 #Durisayar
				 }
				 custom_tooltip = G53_2_1_The_Chendhya_Route_reward2_tt
				 hidden_effect = {
				 H28 = {
					country_event = {
						id = empkeios_events.2101
						days = 3
					}
				}
				}
			}
			ELSE_IF = {
				limit = { 
					exists = H29 #Tsidarok
				}
				custom_tooltip = G53_2_1_The_Chendhya_Route_reward3_tt
				hidden_effect = {
				H29 = {
					country_event = {
						id = empkeios_events.2101
						days = 3
					}
				}
				}
			}
			ELSE = {
				add_prestige = 20
			}
		}
	}

	G53_2_2_Foundation_Lawarund_Company = {
		icon = mission_armor_choice
		position = 2
		required_missions = {
			G53_2_1_The_Chendhya_Route
		}

		provinces_to_highlight = { 
			province_id = 2650
			province_id = 2651
			province_id = 2601
			province_id = 2594
			NOT = {
				base_manpower = 5
			}
		}

		trigger = {
			owns_or_non_sovereign_subject_of = 2650
			owns_or_non_sovereign_subject_of = 2651
			OR = {
				owns_or_non_sovereign_subject_of = 2601
				owns_or_non_sovereign_subject_of = 2594
			} 
			num_of_provinces_owned_or_owned_by_non_sovereign_subjects_with = {
				value = 3
				OR = {
					province_id = 2650
					province_id = 2651
					province_id = 2601
					province_id = 2594
				}
				base_manpower = 5
			}
			
		}

		effect = {
			custom_tooltip = G53_2_2_Foundation_Lawarund_Company_reward_tt
		}
	}

	G53_2_3_Mercenary_Professionalism = {
		icon = mission_smith
		position = 3
		required_missions = {
			G53_2_2_Foundation_Lawarund_Company
		}

		provinces_to_highlight = { 
			OR = {
				province_id = 2650
				province_id = 2651
				province_id = 2601
				province_id = 2594
			}
			OR ={
				owned_by = ROOT
				owned_by_subject_of = ROOT
			}
			OR = {
				NOT = {
					devastation = 0
				}
				NOT = {
					OR = {
						has_building = barracks
						has_building = training_fields
					}
				}
			}
		}

		trigger = {
			has_kheionist_philosophy_basic = {
				type = mil
			}
			num_of_mercenaries = 10
			OR = {
				AND = {
					army_professionalism = 0.20
					manpower = 5
				}
				AND = {
					army_professionalism = 0.10
					manpower = 10
				}
			}
			num_of_provinces_owned_or_owned_by_non_sovereign_subjects_with = {
				value = 3
				OR = {
					province_id = 2650
					province_id = 2651
					province_id = 2601
					province_id = 2594
				}
				OR = {
					has_building = barracks
					has_building = training_fields
				}
				devastation = 0
			}
		}

		effect = {
			IF = {
				limit = {
					army_professionalism = 0.2
				}
				add_manpower = -5
			}
			ELSE = {
				add_manpower = -10
			}
			add_army_professionalism = -0.1
			2651 = {
				add_permanent_province_modifier = {
					name = G53_Lawarund_Company_HQ
					duration = -1
				}
			}
		}
	}
}

G53_3_missions = {
	slot = 3
	generic = no
	ai = yes 
	has_country_shield = yes
	potential = { 
		OR = {
			tag = G53 
			AND = {
				tag = U27
				was_tag = G53
			}
		}
	 }

	G53_3_3_In_Chendhyan_Fields = {
		icon = mission_tree_fishing
		position = 3
		required_missions = {
			G53_2_2_Foundation_Lawarund_Company
		}

		provinces_to_highlight = { 
			region = chendhya_region
			OR = {
				trade_goods = livestock
				trade_goods = grain
			}
			NOT = {
				development = 5
			}
		}

		trigger = {
			2591 = {
				OR = {
					owned_by = ROOT
					owned_by_subject_of = ROOT
					owner = {
						custom_trigger_tooltip = {
							tooltip = G53_3_3_In_Chendhyan_Fields_trigger_tt
							alliance_with = ROOT
							has_country_flag = G53_chendhya_independence
						}
					}
				}	
			}
			if = {
				limit = {
					calc_true_if = {
						amount = 5
						chendhya_region = {
							type = all
							OR = {
								trade_goods = livestock
								trade_goods = grain
							}
						}
					}
				}
				calc_true_if = {
					chendhya_region = {
						type = all
						development = 5
						OR = {
							trade_goods = livestock
							trade_goods = grain
						}
						OR = {
							owned_by = ROOT
							owned_by_subject_of = ROOT
							owner = {
								custom_trigger_tooltip = {
									tooltip = G53_3_3_In_Chendhyan_Fields_trigger_tt
									alliance_with = ROOT
									has_country_flag = G53_chendhya_independence
								}
							}
						}
					}
					amount = 5
				}
			}
			else = {
				chendhya_region = {
					type = all
					OR = {
						trade_goods = livestock
						trade_goods = grain
					}
					OR = {
						owned_by = ROOT
						owned_by_subject_of = ROOT
						owner = {
							custom_trigger_tooltip = {
								tooltip = G53_3_3_In_Chendhyan_Fields_trigger_tt
								alliance_with = ROOT
								has_country_flag = G53_chendhya_independence
							}
						}
					}
				}
			}
		}

		effect = {
			2591 = {
				change_trade_goods = slaves
			}
			custom_tooltip = G53_3_3_In_Chendhyan_Fields_reward_tt
			hidden_effect = {
				# Many of these efects could've been done with a while? yes
				# Did I do it? I think only once, I am sorry
				random_province = {
					limit = {
						region = chendhya_region
						NOT = {
							trade_goods = slaves
						}
						NOT = {
							trade_goods = gold
						}
					}
					change_trade_goods = slaves
				}
				random_province = {
					limit = {
						region = chendhya_region
						NOT = {
							trade_goods = slaves
						}
						NOT = {
							trade_goods = gold
						}
					}
					change_trade_goods = slaves
				}
				random_province = {
					limit = {
						region = chendhya_region
						NOT = {
							trade_goods = slaves
						}
						NOT = {
							trade_goods = gold
						}
					}
					change_trade_goods = slaves
				}
				random_province = {
					limit = {
						region = chendhya_region
						NOT = {
							trade_goods = slaves
						}
						NOT = {
							trade_goods = gold
						}
					}
					change_trade_goods = slaves
				}
				random_province = {
					limit = {
						region = chendhya_region
						NOT = {
							trade_goods = slaves
						}
						NOT = {
							trade_goods = gold
						}
					}
					change_trade_goods = slaves
				}
			}
			if = {
				limit = {
					2591 = {
						province_has_center_of_trade_of_level = 1
					}
				}
				2591 = {
					add_center_of_trade_level = 1
				}
			}
			if = {
				limit = {
					2591 = {
						province_has_center_of_trade_of_level = 3
					}
				}
				2591 = {
					add_base_tax = 1
					add_base_production = 2
					add_base_manpower = 1
				}
			}
			else = {
				2591 = {
					center_of_trade = 2
				}
			}
			# I know this is sloppy but hey if it works it ain't stupid
			every_known_country = {
				limit = {
					has_country_flag = G53_chendhya_independence
				}
				add_historical_friend = ROOT
				change_government_reform_progress = 100
			}
			hidden_effect = {
				if = {
					limit = {
						H23 = {
							has_country_flag = G53_chendhya_independence
						}
					}
					add_historical_friend = H23
				}
				else_if = {
					limit = {
						H28 = {
							has_country_flag = G53_chendhya_independence
						}
					}
					add_historical_friend = H28
				}
				else_if = {
					limit = { 
						H29 = {
							has_country_flag = G53_chendhya_independence
						}
					}
					add_historical_friend = H29
				}
			}
			add_prestige = 10
		}
	}

	G53_3_4_New_Companies = {
		icon = mission_greentide
		position = 4
		required_missions = {
			G53_2_3_Mercenary_Professionalism
			G53_3_3_In_Chendhyan_Fields
		}

		provinces_to_highlight = { 
			is_core = ROOT
			has_owner_culture = no
			NOT = {
				area = donkalyn_area
			}
			NOT = {
				AND = {
					base_manpower = 5
					OR = {
						has_building = barracks
						has_building = training_fields
					}
				}
			}

		}

		trigger = {
			num_of_owned_provinces_with = {
				value = 10
				NOT = {
					area = donkalyn_area
				}
				has_owner_culture = no
				base_manpower = 5
				OR = {
					has_building = barracks
					has_building = training_fields
				}
			}
		}

		effect = {
			custom_tooltip = G53_3_4_New_Companies_reward_tt
			add_power_projection = {
				type = 25_permanent_power_projection
				amount = 25
			}
		}
	}

	G53_3_5_Towards_Unity = {
		icon = mission_approach_throne
		position = 5
		required_missions = {
			G53_3_4_New_Companies
		}

		provinces_to_highlight = {
			OR = { 
				province_id = 2674
				province_id = 2669
				province_id = 2595
				province_id = 2677
				province_id = 2680
				province_id = 2684
				province_id = 2625
			}
			NOT = {
				OR = {
					owned_by = ROOT
					owned_by_subject_of = ROOT
				}
			}
		}

		trigger = {
			IF = {
				limit = {
					exists = G58
				}
				OR = {
					G58 = {
						alliance_with = ROOT
						has_opinion = {
							who = ROOT
							value = 175
						}
					}
					G58 = {
						NOT = {
							alliance_with = ROOT
						}
						NOT = {
							has_opinion = {
								who = ROOT
								value = -100
							}
						}
					}
				}
			}
			num_of_provinces_owned_or_owned_by_non_sovereign_subjects_with = {
				value = 3
				OR = {
					province_id = 2595 # Empkeios
					AND = {
						province_id = 2669 # Keyolion
						NOT = {
							exists = G58
						}
					}
					AND = {
						province_id = 2674 # Eneion
						NOT = {
							exists = G55
						}
					}
					AND = {
						province_id = 2677 # Besolaki
						NOT = {
							exists = G54
						}
					}
					AND = {
						province_id = 2680 # Apikhoixi
						NOT = {
							exists = G57
						}
					}
					AND = {
						province_id = 2684 # Amgremos
						NOT = {
							exists = G62
						}
					}
					AND = {
						province_id = 2625 # Deyon
						NOT = {
							exists = G56
						}
					}
				}
			}
		}

		effect = {
			add_country_modifier = {
				name = G53_towards_unity
				duration = 10950
			}
			IF = {
				limit = {
					alliance_with = G58
				}
				create_subject = {
					subject_type = autonomous_vassal
					subject = G58
				}
			}
			ELSE_IF = {
				limit = {
					exists = G58
				}
				add_casus_belli = {
					type = cb_vassalize_mission
					target = G58
					months = 120
				}
			}
			ELSE = {
				add_core = 2669 # Keyolion
			}
		}
	}

}

G53_4_missions = {
	slot = 4
	generic = no
	ai = yes 
	has_country_shield = yes
	potential = { 
		OR = {
			tag = G53 
			AND = {
				tag = U27
				was_tag = G53
			}
		}
	 }

	G53_4_1_A_Settlers_Nation = {
		icon = mission_colonial
		position = 1
		required_missions = {
		}

		provinces_to_highlight = { 
			province_id = 2595 # Empkeios
		}

		trigger = {
			total_development = 40
			2595 = {
				development = 20
			}
			IF = {
				limit = {
					is_subject = no
				}
				any_known_country = {
					capital_scope = {
						region = alecand_region
					}
					has_opinion = {
						who = ROOT
						value = 100
					}
				}
			}
			ELSE_IF = {
				limit = {
					G51 = {
						NOT = {
							overlord_of = ROOT
						}
					}
				}
				# any_known_country = {
				#	overlord_of = G53
				overlord = {
					has_opinion = {
						who = ROOT
						value = 100
					}
				}
			}
		}

		effect = {
			add_country_modifier = {
				name = G53_Settlers_from_Arpedifer
				duration = 9125
			}
		}
	}

	G53_4_2_Find_a_Supporter = {
		icon = mission_alliances
		position = 2
		required_missions = {
			G53_4_1_A_Settlers_Nation
			G53_5_1_Sugar_From_Keyolion
		}

		provinces_to_highlight = { 
			OR = {
				AND = {
					region = alecand_region
					is_capital = yes
					owner = {
						NOT = {
							OR = {
								tag = G47
								tag = G51
							}
						}
						NOT = {
							AND = {
								has_opinion = {
									who = ROOT
									value = 100
								}
								OR = {
									is_supporting_independence_of = ROOT
									alliance_with = ROOT
								}
							}
						}
					}
				}
			}
		}

		trigger = {
			if = {
				limit = {
					is_subject = yes
				}
				custom_trigger_tooltip = {
					tooltip = G53_overlords_intervene_trigger_tt
					has_country_flag = G58_overlords_intervene_flag
				}
				any_known_country = {
					capital_scope = {
						region = alecand_region
					}
					NOT = {
						tag = G47 #Oktikheion
					}
					has_opinion = {
						who = ROOT
						value = 100
					}
					is_supporting_independence_of = ROOT
				}
			}
			else = {
				NOT = {
					is_subject = yes
				}
				any_known_country = {
					capital_scope = {
						region = alecand_region
					}
					alliance_with = ROOT
				}
			}
		}

		effect = {
			if = {
				limit = {
					is_subject = yes
				}
				add_country_modifier = {
					name = G53_Funding_Independence
					duration = 5475
				}
			}
			else = {
				custom_tooltip = G53_4_2_Find_a_Supporter_reward_tt
				add_prestige = 30
			}
		}
	}

	G53_4_3_Gaining_our_Freedom = {
		icon = mission_monarch_in_throne_room
		position = 3
		required_missions = {
			G53_4_2_Find_a_Supporter
			G53_5_2_The_Independence_Plot
		}

		provinces_to_highlight = { 
		}

		trigger = {
			is_subject = no
			is_at_war = no
		}

		effect = {
			IF = {
				limit = {
					NOT = {
						2720 = { #Vothelisi
							NOT = {
								OR = {
									is_core = ROOT
									is_permanent_claim = ROOT
								}
							}
						}
					}
				}
				2720 = {
					add_permanent_claim = ROOT
				}
			}
			IF = {
				limit = { 
					NOT = { 
						empkeios_area = { 
							type = all
							country_or_non_sovereign_subject_holds = ROOT
						} 
					} 
				}
				empkeios_area = {
					limit = {
						NOT = {
							OR = {
								is_core = ROOT
								is_permanent_claim = ROOT
							}
						}
					}
					add_permanent_claim = ROOT
				}
			}
			IF = {
				limit = {
					NOT = {
						elokos_area = {
							type = all
							country_or_non_sovereign_subject_holds = ROOT
						}
					}
				}
				elokos_area = {
					limit = {
						NOT = {
							OR = {
								is_core = ROOT
								is_permanent_claim = ROOT
							}
						}
					}
					add_permanent_claim = ROOT
				}
			}
			if = {
				limit = {
					G58 = { #Keyolion
						OR = {
							has_country_flag = G58_joined_independence_war_flag
							has_country_flag = G58_accepted_independence_deal_flag
						}
					}
				}
				2595 = { #Empkeios
					remove_province_modifier = G53_Trading_Keyolion_half
					add_permanent_province_modifier = {
						name = G53_Trading_Keyolion
						duration = 18250
					}
				}
				G53 = {
					add_power_projection = {
						type = 25_permanent_power_projection 
						amount = 25
					}
				}
				#TODO - Should this be an event for Keyolion? The flags are the same, they should be able to know from completing the Mission normally
				hidden_effect = {
					2669 = { #Keyolion
						remove_province_modifier = G58_slave_trade_keyo_half_modifier
						add_permanent_province_modifier = {
							name = G58_slave_trade_keyo_full_modifier
							duration = 18250
						}
					}
				}
			}
			else = {
				custom_tooltip = G53_independence_war_rewards_tt
				add_country_modifier = {
					name = G53_solo_independence_war_modifier
					duration = 9125
				}
				add_power_projection = {
					type = 25_permanent_power_projection  # power_projection_25
					amount = 25
				
				}
			}
		}
	}

	G53_4_4_Mteibharan_Opportunity = {
		icon = mission_green_village
		position = 4
		required_missions = {
			G53_3_3_In_Chendhyan_Fields
			G53_4_3_Gaining_our_Freedom
			G53_5_3_The_Southern_Brethren
		}

		provinces_to_highlight = { 
			area = mteibhara_area
			NOT = {
				owned_by = ROOT
			}
		}

		trigger = {
			ROOT = {
				is_subject = no
			}
			if = {
				limit = {
					owns_or_non_sovereign_subject_of = 2665 #Mzhaara
				}
				custom_trigger_tooltip = {
					tooltip = G53_4_4_Mteibharan_Opportunity_trigger_tt
				}
			}
			else = {
				has_kheionist_philosophy_basic = {
					type = dip
				}
				2665 = {
					trade_share = {
						country = ROOT
						share = 20
					}
				}
				2665 = {
					owner = {
						AND = {
							has_spy_network_from = {
								who = ROOT
								value = 30
							}
							custom_trigger_tooltip = {
								tooltip = G53_4_4_Mteibharan_Opportunity_trigger2_tt
								variable_arithmetic_trigger = {
									export_to_variable = {
										which = dip_tech_mteibhara
										who = THIS
										value = dip_tech
									}
									export_to_variable = {
										which = dip_tech_empkeios
										who = root
										value = dip_tech
									}
									subtract_variable = {
										which = dip_tech_empkeios
										value = 1
									}
									check_variable = {
										which = dip_tech_empkeios
										which = dip_tech_mteibhara
									}
								}
							}
						}
					}
				}
			}
		}

		effect = {
			IF = {
				limit = {
					owns_or_non_sovereign_subject_of = 2665
				}
				country_event = {
					id = empkeios_events.4401
				}
			}
			else = {
				country_event = {
					id = empkeios_events.4402
				}
			}
		}
	}

	G53_4_5_Formalization_Dhory_Diplomacy = {
		icon = mission_discussion_arch
		position = 5
		required_missions = {
			G53_3_4_New_Companies
			G53_4_4_Mteibharan_Opportunity
			G53_5_4_A_Second_Port
		}

		provinces_to_highlight = { 
			AND = {
				is_core = ROOT
				development = 10
			}
			NOT = {
				OR = {
					has_building = marketplace
					has_building = trade_depot
					has_building = stock_exchange
					has_building = workshop
					has_building = counting_house
				}
			}
		}

		trigger = {
			has_kheionist_philosophy_basic = {
				type = mil
			}
			treasury = 100
			num_of_mercenaries = 20
			OR = {
				dip = 5
				OR = {
					diplomat = 2
					trader = 2
				}
			}
			OR = {
				mil = 4
				OR = {
					grand_captain = 1
					army_reformer = 1
				}
			}
			num_of_owned_provinces_with = {
				value = 10
				development = 10
				OR = {
					has_building = marketplace
					has_building = trade_depot
					has_building = stock_exchange
					has_building = workshop
					has_building = counting_house
				}
			}
			custom_trigger_tooltip = {
				tooltip = G53_4_5_Formalization_Dhory_Diplomacy_trigger_tt
				all_known_country = {
					if = {
						limit = {
							capital_scope = {
								OR = {
									region = alecand_region
									region = devand_region
									region = chendhya_region
									region = mteibas_valley_region
								}
							}
						}
						NOT = {
							army_size = ROOT
						}
					}
				}
			}
		}

		effect = {
			IF = {
				limit = {
					capital_scope = {
						OR = {
							has_building = tradecompany
							NOT = {
								OR = {
									trade_goods = slaves
									trade_goods = ivory
									trade_goods = slaves
									trade_goods = spices
									trade_goods = cloves
									trade_goods = fur
									trade_goods = incense
								}
							}
						}
					}
				}
				capital_scope = {
					add_base_production = 2
				}
			}
			ELSE = {
				capital_scope = {
					add_building_construction = {
						building = tradecompany
						speed = 0.5
						cost = 0.2
					}
				}
			}
			add_prestige = 20
			add_power_projection = {
				type = 25_permanent_power_projection
				amount = 25
			}
			country_event = {
				id = empkeios_events.4501
			}
		}
	}

	G53_4_6_Two_Nekheis_One_Contry = {
		icon = mission_monarch_diplomacy
		position = 6
		required_missions = {
			G53_3_5_Towards_Unity
			G53_4_5_Formalization_Dhory_Diplomacy
		}

		provinces_to_highlight = { 
			IF =  {
				limit = {
					exists = G58
				}
				is_core = G58
			}
			ELSE = {
				area = keyolion_area
				NOT = {
					is_core = ROOT
				}
				NOT = {is_state_core = ROOT}
				NOT = {devastation = 0}
				NOT = {unrest = 0}
				NOT = {nationalism = 1}
			}
		}

		trigger = {
			has_kheionist_philosophy_basic = {
				type = dip
			}
			IF = {
				limit = {
					exists = G58
				}
				G58 = {
					is_subject_of_type_with_overlord = {
						who = G53
						type = autonomous_vassal
					}
					has_opinion = {
						who = ROOT
						value = 190
					}
					NOT = {
						total_development = ROOT
					}
					NOT = {
						army_size = ROOT
					}
					NOT = {
						navy_size = ROOT
					}
				}
				2669 = {
					OR = {
						has_building = marketplace
						has_building = trade_depot
						has_building = stock_exchange
					}
					OR = {
						has_building = workshop
						has_building = counting_house
					}
					num_of_times_improved = 10
				}
			}
			ELSE = {
				keyolion_area = {
					type = all
					owned_by = ROOT
					is_core = ROOT
					is_state_core = ROOT
					NOT = { devastation = 0.01 }
					NOT = { unrest = 0 }
					NOT = {
						nationalism = 1
					}
				}
			}
		}

		effect = {
			IF = {
				limit = {
					exists = G58
				}
				country_event = {
					id = empkeios_events.4601
				}
			}
			ELSE = {
				country_event = {
					id = empkeios_events.4602
				}
			}
		}
	}
	
}

G53_5_missions = {
	slot = 5
	generic = no
	ai = yes 
	has_country_shield = yes
	potential = { 
		OR = {
			tag = G53 
			AND = {
				tag = U27
				was_tag = G53
			}
		}
	 }

	G53_5_1_Sugar_From_Keyolion = {
		icon = mission_sw_yucca_plants
		position = 1
		required_missions = {
		}

		provinces_to_highlight = { 
			province_id = 2669 # Keyolion
			NOT = {
				AND = {
					owned_by = ROOT
					is_core = ROOT
				}
			}
		}

		trigger = {
			IF = {
				limit = {
					has_country_flag = slave_trade_deal
				}
				ROOT = {
					owns = 2595 # Empkeios	
				}
			}
			ELSE = {
				has_kheionist_philosophy_basic = {
					type = dip
				}
				hidden_trigger = {
					num_of_light_ship = 5
				}
				OR = {
					AND = {
						ROOT = {
							owns = 2669 # Keyolion
						}
						2669 = {
							is_state = yes
						}
					}
					2669 = {
						NOT = {
							owned_by = ROOT
						}
						owner = {
							has_opinion = {
								who = ROOT
								value = 50
							}
						}
					}
				}
				1712 = { #Axehead Gulf
					custom_trigger_tooltip = {
						tooltip = G53_5_1_Sugar_From_Keyolion_trigger_tt
					}
						hidden_trigger = {
						light_ships_in_province = ROOT
						light_ships_in_province = 5
					}
				}
			}
		}

		effect = {
			IF = {
				limit = {
					has_country_flag = slave_trade_deal
				}
				custom_tooltip = G53_5_1_Sugar_From_Keyolion_reward_tt
				add_prestige = 1
			}
			ELSE = {
				2595 = {
					add_permanent_province_modifier = {
						name = G53_Trading_Keyolion
						duration = 18250
					}
				}
				IF = {
					limit = {
						G58 = {
							exists = yes
							owns = 2669 # Keyolion
						}
					}
					hidden_effect = {
						G58 = {
							country_event = {
								id = empkeios_events.5101
								days = 1
							}
						}
					}
				}
				IF = {
					limit = {
						is_subject = yes
					}
					hidden_effect = {
						country_event = {
							id = empkeios_events.5105
							# days = 3 # DEBUG
							days = 1095	
					}
					}	
				}
			}
		}
	}

	G53_5_2_The_Independence_Plot = {
		icon = mission_missive
		position = 2
		required_missions = {
			G53_5_1_Sugar_From_Keyolion
		}

		provinces_to_highlight = { 
		}

		trigger = {
			if = {
				limit = {
					is_subject = yes
				}
				if = {
					limit = {
						OR = {
							has_country_flag = G58_accepted_independence_deal_flag
							has_country_flag = declined_independence_deal
						}
					}
					custom_trigger_tooltip = {
						tooltip = G53_Keyo_Independence_Plot_trigger_tt
					}
					owns = 2595 # Empkeios
				}
				else = {
					custom_trigger_tooltip = {
						tooltip = G53_overlords_intervene_trigger_tt
						has_country_flag = G58_overlords_intervene_flag
					}
					OR = {
						OR = {
							dip = 4
							employed_advisor = {
								category = DIP
							}
							dip_power = 50
						}
						NOT = {
							exists = G58 #Keyolion
						}
					}
					army_size_percentage = 1
					num_of_generals = 1
				}
			}
			else = {
				NOT = {
					is_subject = yes
				}
			}
		}

		effect = {
			if = {
				limit = {
					AND = {
						is_subject = yes
						NOT = {
							OR = {
								has_country_flag = G58_accepted_independence_deal_flag
								has_country_flag = declined_independence_deal
							}
						}
					}
				}
				elokos_area = {
					limit = {
						OR = {
							is_core = G51
							is_core = G47
						}
					}
					hidden_effect = {
						add_permanent_claim = ROOT
					}
				}
				IF = {
					limit = {
						OR  = {
							G51 = { # Vothelisi
								owns = 2720
							}
							G47 = { 
								owns = 2720
							}
						}
					}
					hidden_effect = {
						2720 = { # Vothelisi
							add_permanent_claim = ROOT	
						}
					}
				}
				if = {
					limit = {
						exists = G58 #Keyolion
					}
					custom_tooltip = G53_independence_plot_1_tt
					G58 = {
						country_event = {
							id = empkeios_events.5201
							days = 1
						}
					}
					if = {
						limit = {
							NOT = {
								OR = {
									dip = 4
									employed_advisor = {
										category = DIP
									}
								}
							}
						}
						add_dip_power = -50
					}
				}
				else = {
					custom_tooltip = G53_independence_plot_2_tt
					keyolion_area = {
						limit = {
							is_core = G58 #Keyolion
						}
						hidden_effect = {
							add_permanent_claim = ROOT
						}
					}
				}
			}
			else = {
				custom_tooltip = G53_independence_plot_3_tt
				add_prestige = 5
			}
		}
	}

	G53_5_3_The_Southern_Brethren = {
		icon = mission_big_house
		position = 3
		required_missions = {
			G53_5_2_The_Independence_Plot
		}

		provinces_to_highlight = { 
			province_id = 2669 # Keyolion
		}

		trigger = {
			treasury = 100
			if = {
				limit = {
					alliance_with = G58
				}
				AND = {
					G58 = {
						alliance_with = G53
						trust = {
							who = ROOT
							value = 75
						}
					}
				}
			}
			else = {
				OR = {
					AND = {
						G58 = {
							alliance_with = G53
						}
						trust = {
							who = ROOT
							value = 75
						}
					}
					2669 = {
						owned_by = ROOT
					}
				}
			}
		}

		effect = {
			add_mercantilism = 1
			2674 = {
				add_permanent_claim = ROOT
			}
			add_country_modifier = {
				name = G53_5_3_mission_prod
				duration = 3650
			}
		}
	}

	G53_5_4_A_Second_Port = {
		icon = mission_caribbean_cn
		position = 4
		required_missions = {
			G53_4_3_Gaining_our_Freedom
			G53_5_3_The_Southern_Brethren
		}

		provinces_to_highlight = { 
			province_id = 2674 # Eneion
		}

		trigger = {
			eneion_area = {
				type = all
				country_or_non_sovereign_subject_holds = ROOT
			}
			2674 = {
				OR = {
					has_building = marketplace
					has_building = trade_depot
					has_building = stock_exchange
				}
				OR = {
					has_building = workshop
					has_building = counting_house
				}
				OR = {
					has_building = dock
					has_building = drydock
				}
			}
		}

		effect = {
			2674 = {
				add_base_tax = 1
				add_base_production = 2
			}
			2717 = {
				add_permanent_claim = ROOT
			}
			2716 = {
				add_permanent_claim = ROOT
			}
			soreion_area = {
				add_permanent_claim = ROOT
			}
		}
	}

	G53_5_5_Control_over_the_Southern_Toll = {
		icon = mission_fleet
		position = 4
		required_missions = {
			G53_5_4_A_Second_Port
		}

		provinces_to_highlight = { 
			province_id = 2716 # Anisoton
			province_id = 2717 # Anisikheion
		}

		trigger = {
			treasury = 100
			manpower = 10
			2716 = { # Anisoton
				country_or_non_sovereign_subject_holds = ROOT
				development = 20
				OR = {
					has_building = marketplace
					has_building = trade_depot
					has_building = stock_exchange
				}	
			}
		}

		effect = {
			add_treasury = -100
			add_manpower = -10
			if = {
				limit = {
					2716 = {
						province_has_center_of_trade_of_level = 1
					}
				}
				2716 = {
					add_center_of_trade_level = 1
				}
			}
			if = {
				limit = {
					2716 = {
						province_has_center_of_trade_of_level = 3
					}
				}
				2716 = {
					add_base_tax = 1
					add_base_production = 2
					add_base_manpower = 1
				}
			}
			else = {
				2716 = {
					center_of_trade = 2
				}
			}
			
			capital_scope = {
				add_unit_construction = {
					type = light_ship
					amount = 10
					cost = 0.5
					speed = 0.5
				}
			}
			add_country_modifier = {
				name = G53_Shipbuilding_Spree
				duration = 3650
			}
		}
	}

}

G53_1_extra_missions = { 
	slot = 1
	generic = no
	ai = yes 
	has_country_shield = yes
	potential = { 
		OR = {
			tag = G53 
			AND = {
				tag = U27
				was_tag = G53
			}
		}
		has_country_flag = G53_Slaver_Victory_flag
	}

	G53_1_4_Slaves_Abroad = {
		icon = mission_fleet_arrival
		position = 4
		required_missions = {
			G53_1_3_Slave_Trade_Consolidation
		}

		provinces_to_highlight = { 
			province_id = 2595 # Empkeios
		}

		trigger = {
			any_ally = {
				capital_scope = {
					AND = {
						NOT = {
							region = alecand_region
						}
						NOT = {
							region = devand_region
						}
						NOT = {
							region = chendhya_region
						}
					}
				}
			}
			calc_true_if = {
				1731 = {
					trade_share = {
						country = ROOT
						share = 10
					}
				}
				2665 = {
					trade_share = {
						country = ROOT
						share = 10
					}
				}
				1662 = {
					trade_share = {
						country = ROOT
						share = 10
					}
				}
				1546 = {
					trade_share = {
						country = ROOT
						share = 10
					}
				}
				1544 = {
					trade_share = {
						country = ROOT
						share = 10
					}
				}
				2484 = {
					trade_share = {
						country = ROOT
						share = 10
					}
				}
				1553 = {
					trade_share = {
						country = ROOT
						share = 10
					}
				}
				amount = 3
			}
		}	

		effect = {
			hidden_effect = {
				country_event = {
					id = empkeios_events.1200
				}
			}
			country_event = {
				id = empkeios_events.1202
				days = 1
			}
			if = {
				limit = {
					exists = G62 # Amgremos
				}
				add_casus_belli = {
					type = cb_trade_conflict
					target = G62
					months = 120
				}
			}
			else_if = {
				limit = {
					NOT = {
						owns_or_non_sovereign_subject_of = 2684
					}
				}
				2684 = {
					owner = {
						G53 = {
							add_casus_belli = {
								type = cb_trade_conflict
								target = PREV
								months = 120
							}
						}
					}
				}
			}
			vothelisi_area = {
				limit = {
					NOT = {
						OR = {
							is_core = ROOT
							is_permanent_claim = ROOT
						}
					}
				}
				add_permanent_claim = ROOT
			}
			random_province = {
				limit = {
					area = vothelisi_area
					NOT = {
						trade_goods = slaves
					}
					NOT = {
						trade_goods = gold
					}
				}
				change_trade_goods = slaves
			}
		}
	}

	G53_1_5_Slave_Monopoly = {
		icon = mission_guarded_market
		position = 5
		required_missions = {
			G53_1_4_Slaves_Abroad
		}

		provinces_to_highlight = {
			OR = { 
				AND = {
					province_id = 2684
					NOT = {
						OR = {
							owned_by = ROOT
							owned_by_subject_of = ROOT
						}
					}
				}
				owned_by = G62
			}
		}

		trigger = {
			1741 = { #Kheionai
				trade_share = {
					country = ROOT
					share = 51
				}
			}
			trade_income_percentage = 0.40
			trade_goods_produced_amount = {
				trade_goods = slaves
				amount = 30
			}
			NOT = {
				exists = G62 #Amgremos
			}
			OR = {
				owns_or_non_sovereign_subject_of = 2684
				2684 = {
					owner = {
						alliance_with = ROOT
						trust = {
							who = G53
							value = 70
						}
					}
				}
			}
		}

		effect = {
			add_splendor = 100
			add_country_modifier = {
				name = G53_Slave_Monopoly
				duration = 7300
			}
			every_province = {
				limit = {
					OR = {
						region = alecand_region
						region = devand_region
						region = chendhya_region
					}
					trade_goods = slaves
				}
				add_province_modifier = {
					name = G53_Slave_Node
					duration = -1
				}
			}
		}
	}
}

G53_2_extra_missions = { 
	slot = 2
	generic = no
	ai = yes 
	has_country_shield = yes
	potential = { 
		OR = {
			tag = G53 
			AND = {
				tag = U27
				was_tag = G53
			}
		}
		has_country_flag = G53_Slaver_Victory_flag
	}

	G53_2_4_The_Slave_Trail = {
		icon = mission_desert_pilgrim
		position = 4
		required_missions = {
			G53_1_3_Slave_Trade_Consolidation
			G53_2_3_Mercenary_Professionalism
			G53_3_3_In_Chendhyan_Fields
		}

		provinces_to_highlight = {
			AND = { 
				region = chendhya_region
				NOT = {
					OR = {
						owned_by = ROOT
						owned_by_subject_of = ROOT
					}
				}
				province_has_center_of_trade_of_level = 1
			}
		}

		trigger = {
			if  ={
				limit = {
					any_country = {
						exists = yes
						has_country_flag = G53_Kaerog_Ally_flag
					}
				}
				any_country = {
					custom_trigger_tooltip = {
						tooltip = G53_Kaerog_Ally_tt
						has_country_flag = G53_Kaerog_Ally_flag
					}
					alliance_with = ROOT
					has_opinion = {
						who = ROOT
						value = 190
					}
					NOT = {
						total_development = ROOT
					}
					# TBD: Kaerog/other has reformed
				}
				chendhya_region = {
					type = all
					if = {
						limit = {
							province_has_center_of_trade_of_level = 1
							NOT = {
								province_id = 2465 # Clematar
							}
						}
						OR = {
							owner = {
								custom_trigger_tooltip = {
									tooltip = G53_Kaerog_Ally_tt
									has_country_flag = G53_Kaerog_Ally_flag
								}
							}
							owned_by = ROOT
							owned_by_subject_of = ROOT
						}
					}
					custom_trigger_tooltip = {
						tooltip = G53_2_4_The_Slave_Trail_trigger_tt1
					}
				}
			}
			else = {
				chendhya_region = {
					type = all
					if = {
						limit = {
							province_has_center_of_trade_of_level = 1
							NOT = {
								province_id = 2465 # Clematar
							}
						}
						OR = {
							owned_by = ROOT
							owned_by_subject_of = ROOT
						}
					}
					custom_trigger_tooltip = {
						tooltip = G53_2_4_The_Slave_Trail_trigger_tt2
					}
				}
			}
		}

		effect = {
			if = {
				limit = {
					H23 = {
						AND = {
							exists = yes
							has_country_flag = G53_Kaerog_Ally_flag
						}
					}
				}
				create_subject = {
					subject_type = autonomous_vassal
					subject = H23
				}
				H23 = {
					add_country_modifier = {
						name = G53_Slave_Trail_Kaerog
						duration = 3650
					}
				}
			}
			else_if = {
				limit = {
					H28 = {
						AND = {
							exists = yes
							has_country_flag = G53_Kaerog_Ally_flag
						}
					}
				}
				create_subject = {
					subject_type = autonomous_vassal
					subject = H28
				}
				H28 = {
					add_country_modifier = {
						name = G53_Slave_Trail_Kaerog
						duration = 3650
					}
				}
			}
			else_if = {
				limit = {
					H29 = {
						AND = {
							exists = yes
							has_country_flag = G53_Kaerog_Ally_flag
						}
					}
				}
				create_subject = {
					subject_type = autonomous_vassal
					subject = H29
				}
				H29 = {
					add_country_modifier = {
						name = G53_Slave_Trail_Kaerog
						duration = 3650
					}
				}
			}
			add_prestige = 20
			add_country_modifier = {
				name = G53_Slave_Trail
				duration = 3650
			}
		}
	}

	G53_2_5_Necessary_Expansion = {
		icon = mission_warrior_gold
		position = 5
		required_missions = {
			G53_1_4_Slaves_Abroad
			G53_2_4_The_Slave_Trail
		}

		provinces_to_highlight = { 
			area = vothelisi_area
			NOT = {
				OR = {
				AND = {
					owned_by = ROOT
					is_core = ROOT
				}
				AND = {
					owner = {
						is_subject_of = ROOT
					}
				}
				}
			}
		}

		trigger = {
			vothelisi_area = {
				type = all
				OR = {
					owned_by = ROOT
					owned_by_subject_of = ROOT
				}
				OR = {
					has_building = marketplace
					has_building = trade_depot
					has_building = stock_exchange
					has_building = workshop
					has_building = counting_house
				}
			}
			vothelisi_area = {
				fort_level = 1
			}
			calc_true_if = {
				amount = 25
				all_owned_province = {
					owned_by = ROOT
					is_core = ROOT
					is_state = yes
				}
			}
		}

		effect = {
			hidden_effect = {
				country_event = {
					id = empkeios_events.1200
				}
			}
			country_event = {
				id = empkeios_events.1202
				days = 1
			}
			add_country_modifier = {
				name = G53_Necessary_Expansion
				duration = 3650
			}
			custom_tooltip = G53_2_5_Necessary_Expansion_tt
			hidden_effect = {
				set_variable = {
					which = G53_count
					value = 5
				}
				while = {
					limit = {
						check_variable = {
							which = G53_count
							value = 0
						}
					}
					random_province = {
						limit = {
							region = devand_region
							NOT = {
								trade_goods = slaves
							}
							NOT = {
								trade_goods = gold
							}
						}
						change_trade_goods = slaves
					}
					subtract_variable = {
						which = G53_count
						value = 1
					}
				}
			}
		}
	}

	G53_2_6_Devands_World_Port = {
		icon = mission_sunset_alternative
		position = 6
		required_missions = {
			G53_1_5_Slave_Monopoly
			G53_2_5_Necessary_Expansion
		}

		provinces_to_highlight = { 
			area = empkeios_area
			NOT = {
				development = 20
			}
			NOT = {
				current_institution = 100
			}
		}

		trigger = {
			2595 = {
				development = 40
				has_building = tradecompany
				OR = {
					has_building = marketplace
					has_building = trade_depot
					has_building = stock_exchange
				}
				OR = {
					has_building = shipyard
					has_building = grand_shipyard
				}
				OR = {
					has_building = dock
					has_building = drydock
				}
			}
			empkeios_area = {
				type = all
				development = 20
				current_institution = 100
			}
		}

		effect = {
			add_splendor = 100
			add_prestige = 50
			2595 = {
				remove_province_modifier = G53_Slave_Capital
				add_province_modifier = {
					name = G53_Devands_World_Port_mod
					duration = -1
				}
			}
			if = {
				limit = {
					2959 = {
						province_has_center_of_trade_of_level = 3
					}
				}
				2595 = {
					add_base_production = 5
				}
			}
			else = {
				2595 = {
					add_center_of_trade_level = 1
				}
			}
			hidden_effect = {
				country_event = {
					id = empkeios_events.1200
				}
			}
			country_event = {
				id = empkeios_events.2601
				days = 1
			}
		}
	}
}

G53_3_extra_missions = { 
	slot = 3
	generic = no
	ai = yes 
	has_country_shield = yes
	potential = { 
		OR = {
			tag = G53 
			AND = {
				tag = U27
				was_tag = G53
			}
		}
		has_country_flag = G53_Slaver_Victory_flag
	}

	G53_3_6_Apikhos_Volidir = {
		icon = mission_thinking_king
		position = 6
		required_missions = {
			G53_2_5_Necessary_Expansion
			G53_3_5_Towards_Unity
			G53_4_5_Formalization_Dhory_Diplomacy
		}

		provinces_to_highlight = { 
			owner = {
				NOT = {
					tag = G53
				}
				capital_scope = {
					OR = {
						region = devand_region
						region = andic_reach_region
					}
				}
				total_development = ROOT
			}
		}

		trigger = {
			has_kheionist_philosophy_basic = {
				type = dip
			}
			OR = {
				dip = 5
				has_dip_advisor_2 = yes
			}
			custom_trigger_tooltip = {
				tooltip = G53_3_6_Apikhos_Volidir_trigger_tt
				all_known_country = {
					if = {
						limit = {
							capital_scope = {
								OR = {
									region = devand_region
									region = andic_reach_region
								}
							}
						}
						NOT = {
							total_development = ROOT
						}
					}
				}
			}
			custom_trigger_tooltip = {
				tooltip = G53_3_6_Apikhos_Volidir_trigger_tt2
				all_ally = {
					if = {
						limit = {
							capital_scope = {
								OR = {
									region = devand_region
									region = andic_reach_region
								}
							}
							NOT = {
								tag = G58
							}
						}
						has_opinion = {
							who = ROOT
							value = 200
						}
						trust = {
							who = ROOT
							value = 80
						}
					}
				}
			}
			2674 = {
				OR = {
					owned_by = ROOT
					owned_by_subject_of = ROOT
					owner = {
						alliance_with = ROOT
					}
				}
			}
			2669 = {
				OR = {
					owned_by = ROOT
					owned_by_subject_of = ROOT
					owner = {
						alliance_with = ROOT
					}
				}
			}
			2595 = {
				OR = {
					owned_by = ROOT
					owned_by_subject_of = ROOT
					owner = {
						alliance_with = ROOT
					}
				}
			}
			2677 = {
				OR = {
					owned_by = ROOT
					owned_by_subject_of = ROOT
					owner = {
						alliance_with = ROOT
					}
				}
			}
			2680 = {
				OR = {
					owned_by = ROOT
					owned_by_subject_of = ROOT
					owner = {
						alliance_with = ROOT
					}
				}
			}
			2684 = {
				OR = {
					owned_by = ROOT
					owned_by_subject_of = ROOT
					owner = {
						alliance_with = ROOT
					}
				}
			}
			2625 = {
				OR = {
					owned_by = ROOT
					owned_by_subject_of = ROOT
					owner = {
						alliance_with = ROOT
					}
				}
			}
			adm_power = 200
			dip_power = 200
			mil_power = 200
		}

		effect = {
			hidden_effect = {
				country_event = {
					id = empkeios_events.3601
				}
				every_ally = {
					limit = {
						capital_scope = {
							OR = {
								region = devand_region
								region = andic_reach_region
							}
						}
						NOT = {
							tag = G58 #Keyolion
						}
					}
					ROOT = {
						create_subject = {
							subject_type = vassal
							subject = PREV
						}
					}
				}
			}
			custom_tooltip = G53_3_6_Apikhos_Volidir_tt
		}
	}

}
