eordand_1 = {
	slot = 1
	generic = no
	ai = yes
	has_country_shield = yes
	potential = {
		tag = H21
	}
	
	eord_1_vanbury_guild = {
		icon = mission_rb_build_furnaces 
		position = 1
		required_missions = {}
		
		trigger = {
			war_with = G97
		}
		
		effect = {
			add_country_modifier = {
				name = eor_vanbury_guild_war
				duration = 1825
			}
		}
	}
	
	eord_1_rezankand = {
		icon = mission_burning_man 
		position = 2
		required_missions = {}
		
		trigger = {
			war_with = H67
		}
		
		effect = {
			add_country_modifier = {
				name = eor_rezankand_war
				duration = 1825
			}
		}
	}
	
	eord_1_herbs_pixie_dust = {
		icon = mission_dominate_persian_gulf
		position = 3
		required_missions = { }
		
		trigger = {
			incense = 6
			OR = {
				spices = 3
				tobacco = 3
				sugar = 3
			}
		}
		
		effect = {
			add_country_modifier = {
				name = eor_herbs_pixie
				duration = 7300
			}
			add_estate_loyalty = { estate = estate_mages loyalty = 10 }
		}
	}
	
	eord_1_secure_sarmadfar = {
		icon = mission_coromandel_expansion
		position = 6
		required_missions = { }
		
		provinces_to_highlight = {
			OR = {
				area = murdkather_area
				area = dearktir_area
				area = paskala_area
			}
			NOT = { owned_by = ROOT }
		}
		
		trigger = {
			murdkather_area = {
				type = all
				owned_by = ROOT
			}
			dearktir_area = {
				type = all
				owned_by = ROOT
			}
			paskala_area = {
				type = all
				owned_by = ROOT
			}
		}
		
		effect = {
			add_country_modifier = {
				name = eord_sarmadfar_tolls
				duration = 7300
			}
		}
	}
	
	eord_1_stargazers = {
		icon = mission_star_ascendency
		position = 7
		required_missions = { eord_1_secure_sarmadfar eord_2_glorelthir }
		
		provinces_to_highlight = {
			OR = {
				area = trimthir_area
				area = anracmur_area
				area = fogracleak_area
			}
			NOT = { owned_by = ROOT }
		}
		
		trigger = {
			trimthir_area = {
				OR = {
					owned_by = ROOT
					AND = {
						U43 = { is_subject_of = ROOT }
						owned_by = U43
					}
				}
				type = all
			}
			anracmur_area = {
				OR = {
					owned_by = ROOT
					AND = {
						U43 = { is_subject_of = ROOT }
						owned_by = U43
					}
				}
				type = all
			}
			fogracleak_area = {
				OR = {
					owned_by = ROOT
					AND = {
						U43 = { is_subject_of = ROOT }
						owned_by = U43
					}
				}
				type = all
			}
		}
		
		effect = {
			if = {
				limit = { U43 = { is_subject_of = ROOT } }
				inherit = U43
				trimthir_area = {
					limit = { owned_by = ROOT }
					add_province_modifier = { name = eord_fograc_tolerance duration = -1 }
				}
				anracmur_area = {
					limit = { owned_by = ROOT }
					add_province_modifier = { name = eord_fograc_tolerance duration = -1 }
				}
				fogracleak_area = {
					limit = { owned_by = ROOT }
					add_province_modifier = { name = eord_fograc_tolerance duration = -1 }
				}
			}
			else = {
				country_event = {
					id = eordand.19
				}
				custom_tooltip = eordand_fate_of_the_fograc_tt
			}
			tilsikabahn_area = {
				add_permanent_claim = ROOT
			}
			drabs_cambann_area = {
				add_permanent_claim = ROOT
			}
			gommiochand_area = {
				add_permanent_claim = ROOT
			}
			2136 = {
				add_permanent_claim = ROOT
			}
		}
	}
	eord_1_edge_of_world = {
		icon = mission_rb_scottish_north_sea_trade
		position = 8
		required_missions = { eord_1_stargazers }
		
		provinces_to_highlight = {
			area = eorwestislands_area
			NOT = { owned_by = ROOT }
		}
		
		trigger = {
			eorwestislands_area = {
				owned_by = ROOT
				type = all
			}
		}
		
		effect = {
			create_explorer = { tradition = 50 }
			add_country_modifier = {
				name = eord_explorer
				duration = 9125
			}
		}
	}
	
	eord_1_what_lies_beyond = {
		icon = mission_asian_city
		position = 9
		required_missions = { eord_1_edge_of_world }
		
		trigger = {
			OR = {
				kheionai_superregion = {
					has_discovered = ROOT
				}
				asia = {
					has_discovered = ROOT
				}
				
			}
		}
		
		effect = {
			add_prestige = 10
			add_dip_power = 50
			add_country_modifier = {
				name = eord_beyond
				duration = 9125
			}
		}
	}
	
	eord_1_restrain_artificers = {
		icon = mission_oceania_dev_capital
		position = 11
		required_missions = { eord_1_what_lies_beyond eord_2_urdea_samrad }
		
		provinces_to_highlight = {
			region = haraf_region
			NOT = { country_or_non_sovereign_subject_holds = ROOT }
		}
		
		trigger = {
			num_of_provinces_owned_or_owned_by_non_sovereign_subjects_with = {
				value = 25
				region = haraf_region
			}
			NOT = { exists = H30 }
			NOT = { exists = H31 }
			NOT = { exists = H32 }
			NOT = { exists = U31 }
		}
		
		effect = {
			zurzumexia_area = {
				add_permanent_claim = ROOT
			}
			pontuzex_area = {
				add_permanent_claim = ROOT
			}
			kinn_rondi_area = {
				add_permanent_claim = ROOT
			}
			manguchtec_area = {
				add_permanent_claim = ROOT
			}
			auvultadih_area = {
				add_permanent_claim = ROOT
			}
			naftlachilar_area = {
				add_permanent_claim = ROOT
			}
		}
	}
	
	eord_1_explore_deserts = {
		icon = mission_sw_against_the_desert
		position = 12
		required_missions = { eord_1_restrain_artificers }
		
		provinces_to_highlight = {
			OR = {
				area = kinn_rondi_area
				area = auvultadih_area
			}
			NOT = { country_or_non_sovereign_subject_holds = ROOT }
		}
		
		trigger = {
			kinn_rondi_area = {
				type = all
				country_or_non_sovereign_subject_holds = ROOT
			}
			auvultadih_area = {
				type = all
				country_or_non_sovereign_subject_holds = ROOT
			}
		}
		
		effect = {
			haraf_region = {
				limit = { NOT = { country_or_non_sovereign_subject_holds = ROOT } }
				add_permanent_claim = ROOT
			}
			add_country_modifier = {
				name = eord_haraf_desert
				duration = 12775
			}
		}
	}
	
	eord_1_restore_flow = {
		icon = mission_pue_irrigation_cannals
		position = 13
		required_missions = { eord_1_explore_deserts }
		
		provinces_to_highlight = {
			OR = {
				province_id = 2822
				province_id = 2823
				province_id = 2824
				area = auvultadih_area
			}
			NOT = { country_or_non_sovereign_subject_holds = ROOT }
		}
		
		trigger = {
			OR = {
                treasury = 1500
                years_of_income = 1
            }
			adm_power = 50
			dip_power = 50
			auvultadih_area = {
				type = all
				country_or_non_sovereign_subject_holds = ROOT
			}
			2822 = {
				country_or_non_sovereign_subject_holds = ROOT
			}
			2823 = {
				country_or_non_sovereign_subject_holds = ROOT
			}
			2824 = {
				country_or_non_sovereign_subject_holds = ROOT
			}
		}
		
		effect = {
			if = {
                limit = {
                    years_of_income = 1
                    NOT = { treasury = 1500 }
                }
                add_years_of_income = -1
            }
            else_if = {
                limit = {
                    treasury = 1500
                }
                add_treasury = -1500
            }
			add_adm_power = -50
			add_dip_power = -50
			add_country_modifier = {
				name = eord_repairing_qanats
				duration = 3650
			}
			country_event = { id = eordand.20 days = 3650 }
			custom_tooltip = eordand_ancient_lifeblood_of_the_haraf_tt
		}
	}
	
	eord_1_ruined_circle = {
		icon = mission_aelantir
		position = 14
		required_missions = { eord_1_restore_flow eord_2_isle_steel_smoke }
		
		provinces_to_highlight = {
			OR = {
				AND = {
					province_id = 1960
					NOT = { owned_by = ROOT }
				}
				AND = {
					region = reapers_coast_region
					NOT = { country_or_non_sovereign_subject_holds = ROOT }
					NOT = {
						ROOT = {
							num_of_provinces_owned_or_owned_by_non_sovereign_subjects_with = {
								value = 5
								region = reapers_coast_region
							}
						}
					}
				}
			}
		}
		
		trigger = {
			1960 = {
				owned_by = ROOT
			}
			num_of_provinces_owned_or_owned_by_non_sovereign_subjects_with = {
				value = 5
				region = reapers_coast_region
			}
		}
		
		effect = {
			1960 = {
				change_province_name = "Cinnamgob" #Spit of Fate
				rename_capital = "Aracinnam" #Fortress of Fate
				add_base_tax = 1
				add_base_production = 1
				add_base_manpower = 2
				add_province_modifier = { name = eord_spit_of_fate duration = -1 }
			}
			dry_trickster_isle_area = {
				add_permanent_claim = ROOT
			}
			wet_trickster_isle_area = {
				add_permanent_claim = ROOT
			}
			isles_of_plenty_area = {
				add_permanent_claim = ROOT
			}
		}
	}
	
	eord_1_bloodstained_altars = {
		icon = mission_blood_sacrifice
		position = 15
		required_missions = { eord_1_ruined_circle }
		
		provinces_to_highlight = {
			area = cheshosh_area
			NOT = { owned_by = ROOT }
		}
		
		trigger = {
			cheshosh_area = {
				owned_by = ROOT
				type = all
			}
			num_of_provinces_owned_or_owned_by_non_sovereign_subjects_with = {
				region = reapers_coast_region
				religion = ROOT
				value = 10
			}
		}
		
		effect = {
			add_country_modifier = {
				name = eord_no_more_sacrifices
				duration = 7300
			}
			reapers_coast_region = {
				limit = {
					NOT = { owned_by = ROOT }
				}
				add_permanent_claim = ROOT
			}
			unstill_waters_area = {
				add_permanent_claim = ROOT
			}
		}
	}
	
	eord_1_center_of_ruin = {
		icon = mission_invade_island
		position = 16
		required_missions = { eord_1_bloodstained_altars eord_2_promises_prosperity }
		
		provinces_to_highlight = {
			area = mykx_isles_area
			NOT = { owned_by = ROOT }
		}
		
		trigger = {
			mykx_isles_area = {
				owned_by = ROOT
				type = all
			}
		}
		
		effect = {
			if = {
				limit = {
					1075 = {
						has_fort_building_trigger = yes
					}
				}
				1075 = {
					add_building_construction = {
						building = naval_battery
						speed = 0.5
						cost = 0.5
					}
				}
			}
			else = {
				add_mercantilism = 5
			}
			add_country_modifier = {
				name = eord_ruined_sea_fleet
				duration = -1
			}
			ruined_isles_region = {
				add_permanent_claim = ROOT
			}
			endralliande_region = {
				add_permanent_claim = ROOT
			}
		}
	}

	eord_1_apprehend_thieves = {
		icon = mission_rb_into_ireland
		position = 17
		required_missions = { eord_1_center_of_ruin }
		
		provinces_to_highlight = {
			region = endralliande_region
			NOT = { country_or_non_sovereign_subject_holds = ROOT }
		}
		
		trigger = {
			num_of_provinces_owned_or_owned_by_non_sovereign_subjects_with = {
				region = endralliande_region
				value = 10
			}
			1075 = {
				is_strongest_trade_power = ROOT
			}
		}
		
		effect = {
			add_country_modifier = {
				name = eor_apprehend_thieves
				duration = -1
			}
			ravenous_isle_region = {
				add_permanent_claim = ROOT
			}
			soruin_region = {
				add_permanent_claim = ROOT
			}
		}
	}
	
	eord_1_cousins_sun_moon = {
		icon = mission_three_elve
		position = 18
		required_missions = { eord_1_apprehend_thieves }
		
		trigger = {
			calc_true_if = {
				all_known_country = {
					OR = {
						has_country_modifier = elven_administration
						OR = {
							primary_culture = moon_elf
							primary_culture = sun_elf
							primary_culture = wood_elf
						}
					}
					has_opinion = {
						who = ROOT
						value = 125
					}
				}
				amount = 2
			}
			num_of_owned_provinces_with = {
				has_building = university
				value = 4
			}
		}
		
		effect = {
			country_event = { id = eordand.21 days = 1095 }
			custom_tooltip = eordand_discourse_with_distant_family_tt
		}
	}
	
	eord_1_venaan = {
		icon = mission_dha_thatchil
		position = 19
		required_missions = { eord_1_cousins_sun_moon }
		
		provinces_to_highlight = {
			province_id = 941
			NOT = { owned_by = ROOT }
		}
		
		trigger = {
			NOT = { mission_completed = eord_2_aldan } 
			941 = {
				owned_by = ROOT
			}
			calc_true_if = {
				all_ally = {
					has_country_modifier = elven_administration
				}
				amount = 2
			}
		}
		
		effect = {
			if = {
				limit = { NOT = { 941 = { has_elven_majority_trigger = yes } } }
				941 = { 
					add_elven_minority_size_effect = yes
					add_base_tax = 2
					add_base_production = 2
					add_base_manpower = 1
				}
			}
			else = {
				941 = {
					add_base_tax = 1
					add_base_production = 1
					add_base_manpower = 1
				}
				random_owned_province = {
					limit = { 
						NOT = { has_elven_majority_trigger = yes } 
						OR = {
							AND = { development = 10 culture_group = eordan_ruinborn_elf }
							development = 16
						}
					}
					add_elven_minority_size_effect = yes
				}
			}
			hidden_effect = {
				random_owned_province = {
					limit = { 
						NOT = { has_elven_majority_trigger = yes } 
						OR = {
							AND = { development = 10 culture_group = eordan_ruinborn_elf }
							development = 16
						}
					}
					add_elven_minority_size_effect = yes
				}
				random_owned_province = {
					limit = { 
						NOT = { has_elven_majority_trigger = yes } 
						OR = {
							AND = { development = 10 culture_group = eordan_ruinborn_elf }
							development = 16
						}
					}
					add_elven_minority_size_effect = yes
				}
				random_owned_province = {
					limit = { 
						NOT = { has_elven_majority_trigger = yes } 
						OR = {
							AND = { development = 10 culture_group = eordan_ruinborn_elf }
							development = 16
						}
					}
					add_elven_minority_size_effect = yes
				}
				random_owned_province = {
					limit = { 
						NOT = { has_elven_majority_trigger = yes } 
						OR = {
							AND = { development = 10 culture_group = eordan_ruinborn_elf }
							development = 16
						}
					}
					add_elven_minority_size_effect = yes
				}
				random_owned_province = {
					limit = { 
						NOT = { has_elven_majority_trigger = yes } 
						OR = {
							AND = { development = 10 culture_group = eordan_ruinborn_elf }
							development = 16
						}
					}
					add_elven_minority_size_effect = yes
				}
				random_owned_province = {
					limit = { 
						NOT = { has_elven_majority_trigger = yes } 
						OR = {
							AND = { development = 10 culture_group = eordan_ruinborn_elf }
							development = 16
						}
					}
					add_elven_minority_size_effect = yes
				}
				random_owned_province = {
					limit = { 
						NOT = { has_elven_majority_trigger = yes } 
						OR = {
							AND = { development = 10 culture_group = eordan_ruinborn_elf }
							development = 16
						}
					}
					add_elven_minority_size_effect = yes
				}
				random_owned_province = {
					limit = { 
						NOT = { has_elven_majority_trigger = yes } 
						OR = {
							AND = { development = 10 culture_group = eordan_ruinborn_elf }
							development = 16
						}
					}
					add_elven_minority_size_effect = yes
				}
				random_owned_province = {
					limit = { 
						NOT = { has_elven_majority_trigger = yes } 
						OR = {
							AND = { development = 10 culture_group = eordan_ruinborn_elf }
							development = 16
						}
					}
					add_elven_minority_size_effect = yes
				}
				random_owned_province = {
					limit = { 
						NOT = { has_elven_majority_trigger = yes } 
						OR = {
							AND = { development = 10 culture_group = eordan_ruinborn_elf }
							development = 16
						}
					}
					add_elven_minority_size_effect = yes
				}
			}
			largest_increase_of_elven_tolerance_effect = yes
		}
	}
	
	eord_1_aelathraithe = {
		icon = mission_tree_fishing
		position = 20
		required_missions = { eord_1_venaan }
		
		trigger = {
			stability = 3
			OR = {
                treasury = 2000
                years_of_income = 2
            }
			num_of_owned_provinces_with = {
				value = 10
				has_building = university
			}
			num_of_owned_provinces_with = {
				value = 10
				has_building = mage_tower
			}
		}
		
		effect = {
			if = {
                limit = {
                    years_of_income = 2
                    NOT = { treasury = 2000 }
                }
                add_years_of_income = -2
            }
            else_if = {
                limit = {
                    treasury = 2000
                }
                add_treasury = -2000
            }
			every_owned_province = {
				limit = {
					NOT = { has_elven_majority_trigger = yes }
					OR = {
						has_building = university
						has_building = mage_tower
					}
				}
				add_elven_minority_size_effect = yes
			}
			largest_increase_of_elven_tolerance_effect = yes
			add_accepted_culture = moon_elf
			add_accepted_culture = sun_elf
			add_accepted_culture = wood_elf
			add_country_modifier = {
				name = eord_aelathraithe
				duration = -1
			}
			every_owned_province = {
				if = {
					limit = {
						culture = star_elf
					}
					change_culture = moon_elf
				}
				if = {
					limit = {
						culture = dawn_elf
					}
					change_culture = sun_elf
				}
			}
		}
	}
}

eordand_1_domandrod = {
	slot = 1
	generic = no
	ai = yes
	has_country_shield = yes
	potential = {
		tag = H21
		has_country_flag = eord_seasonal_completed
	}
	
	eord_1_valley_of_thousand_lights = {
		icon = mission_alone_in_the_wood 
		position = 23
		required_missions = {}
		
		provinces_to_highlight = {
			OR = {
				AND = {
					area = domandrod_gladeway_3_area
					NOT = { owned_by = ROOT }
				}
				AND = {
					province_id = 6556
					NOT = {
						AND = {
							owned_by = ROOT
							development = 15
						}
					}
				}
			}
		}
		
		trigger = {
			domandrod_gladeway_3_area = {
				owned_by = ROOT
				type = all
			}
			development_in_provinces = {
				area = domandrod_gladeway_3_area
				value = 30
			}
			6556 = {
				owned_by = ROOT
				development = 15
			}
		}
		
		effect = {
			domandrod_gladeway_3_area = {
				add_province_modifier = {
					name = eord_spring_glade
					duration = -1
				}
			}
			6556 = {
				add_province_modifier = {
					name = eord_spring_city
					duration = -1
				}
				center_of_trade = 1
			}
		}
	}
	
	eord_1_bliss_unending = {
		icon = mission_wine_monopolies 
		position = 24
		required_missions = {}
		
		provinces_to_highlight = {
			OR = {
				AND = {
					area = domandrod_gladeway_2_area
					NOT = { owned_by = ROOT }
				}
				AND = {
					province_id = 6555
					NOT = {
						AND = {
							owned_by = ROOT
							development = 15
						}
					}
				}
			}
		}
		
		trigger = {
			domandrod_gladeway_2_area = {
				owned_by = ROOT
				type = all
			}
			development_in_provinces = {
				area = domandrod_gladeway_2_area
				value = 30
			}
			6555 = {
				owned_by = ROOT
				development = 15
			}
		}
		
		effect = {
			domandrod_gladeway_2_area = {
				add_province_modifier = {
					name = eord_summer_glade
					duration = -1
				}
			}
			6555 = {
				add_province_modifier = {
					name = eord_summer_city
					duration = -1
				}
				center_of_trade = 1
			}
		}
	}
}

eordand_2 = {
	slot = 2
	generic = no
	ai = yes
	has_country_shield = yes
	potential = {
		tag = H21
	}
	
	eord_2_istranar = {
		icon = league_of_the_public_weal 
		position = 1
		required_missions = {}
		
		trigger = {
			war_with = H47
		}
		
		effect = {
			add_country_modifier = {
				name = eord_istranar
				duration = 1825
			}
		}
	}
	
	eord_2_neratica = {
		icon = gory_to_the_black_army 
		position = 2
		required_missions = {}
		
		trigger = {
			war_with = H43
		}
		
		effect = {
			add_country_modifier = {
				name = eord_neratica
				duration = 1825
			}
		}
	}
	
	eord_2_alchemical_security = {
		icon = mission_science
		position = 4
		required_missions = { 
			eord_1_herbs_pixie_dust
			eord_3_ironhunger
		}
		
		trigger = {
			glass = 2
			tropical_wood = 4
		}
		
		effect = {
			add_adm_power = 25
			add_dip_power = 25
			add_mil_power = 25
			add_country_modifier = {
				name = eord_enchanted_labware
				duration = 9125
			}
		}
	}
	
	eord_2_glorelthir = {
		icon = mission_divert_trade_from_bengal
		position = 6
		required_missions = { }
		
		provinces_to_highlight = {
			region = glorelthir_region
			NOT = { owned_by = ROOT }
		}
		
		trigger = {
			glorelthir_region = {
				type = all
				owned_by = ROOT
			}
		}
		
		effect = {
			add_country_modifier = {
				name = eord_heart_of_rebirth
				duration = 7300
			}
		}
	}
	
	eord_2_past_haraf = {
		icon = mission_pue_restore_mesa_verde
		position = 8
		required_missions = { eord_1_stargazers }
		
		provinces_to_highlight = {
			region = haraf_region
			NOT = { country_or_non_sovereign_subject_holds = ROOT }
		}
		
		trigger = {
			num_of_provinces_owned_or_owned_by_non_sovereign_subjects_with = {
				value = 4
				region = haraf_region
			}
		}
		
		effect = {
			koonbepa_area = {
				add_permanent_claim = ROOT
			}
			mikidaxepi_area = {
				add_permanent_claim = ROOT
			}
			eekinahi_area = {
				add_permanent_claim = ROOT
			}
		}
	}
	
	eord_2_silence_cacophony = {
		icon = mission_cannons_firing
		position = 9
		required_missions = { eord_2_past_haraf }
		
		provinces_to_highlight = {
			OR = {
				AND = {
					OR = {
						province_id = 2092
						province_id = 4658
					}
					NOT = { country_or_non_sovereign_subject_holds = ROOT }
				}
				AND = {
					region = haraf_region
					NOT = { country_or_non_sovereign_subject_holds = ROOT }
					NOT = {
						ROOT = {
							num_of_provinces_owned_or_owned_by_non_sovereign_subjects_with = {
								value = 10
								region = haraf_region
							}
						}
					}
				}
			}
		}
		
		trigger = {
			2092 = {
				country_or_non_sovereign_subject_holds = ROOT
			}
			4658 = {
				country_or_non_sovereign_subject_holds = ROOT
			}
			num_of_provinces_owned_or_owned_by_non_sovereign_subjects_with = {
				value = 10
				region = haraf_region
			}
		}
		
		effect = {
			drabs_cambann_area = {
				add_permanent_claim = ROOT
			}
			gommiochand_area = {
				add_permanent_claim = ROOT
			}
			koonbepa_area = {
				add_permanent_claim = ROOT
			}
			taldoud_kaysa_area = {
				add_permanent_claim = ROOT
			}
			eekinahi_area = {
				add_permanent_claim = ROOT
			}
		}
	}
	
	eord_2_urdea_samrad = {
		icon = mission_conquer_alexandria
		position = 10
		required_missions = { eord_2_silence_cacophony }
		
		provinces_to_highlight = {
			province_id = 4658
			NOT = {
				AND = {
					country_or_non_sovereign_subject_holds = ROOT
					is_core = ROOT
					has_trade_building_trigger = yes
					has_fort_building_trigger = yes
					num_of_times_improved_by_owner = 5
				}
			}
		}
		
		trigger = {
			4658 = {
				country_or_non_sovereign_subject_holds = ROOT
				is_core = ROOT
				has_trade_building_trigger = yes
				has_fort_building_trigger = yes
				num_of_times_improved_by_owner = 5
			}
		}
		
		effect = {
			if = {
				limit = {
					NOT = {
						OR = {
							4658 = { has_province_modifier = caamas_urdea_samrad_mod }
							4658 = { has_province_modifier = kairncal_urdea_samrad_mod }
						}
					}
				}
				4658 = { 
					add_province_modifier = { name = caamas_urdea_samrad_mod duration = -1 }
					change_province_name = "Urdea Samrad" #New South Summer
					rename_capital = "Urdea Samrad"
				}
			}
			else = {
				add_mercantilism = 5
				4658 = {
					add_base_tax = 2
					add_base_production = 2
					add_base_manpower = 2
				}
			}
		}
	}
	
	eord_2_watching_lovers = {
		icon = mission_claim_the_canaries
		position = 12
		required_missions = { eord_1_restrain_artificers }
		
		provinces_to_highlight = {
			province_id = 2157
		}
		
		trigger = {
			2157 = {
				country_or_non_sovereign_subject_holds = ROOT
				trade_share = {
					country = ROOT
					share = 30
				}
				light_ships_in_province = 10
			}
		}
		
		effect = {
			west_vanburia_area = {
				add_permanent_claim = ROOT
			}
			north_vanburia_area = {
				add_permanent_claim = ROOT
			}
			east_vanburia_area = {
				add_permanent_claim = ROOT
			}
		}
	}
	
	eord_2_isle_steel_smoke = {
		icon = mission_destroyed_city
		position = 13
		required_missions = { eord_2_watching_lovers }
		
		provinces_to_highlight = {
			OR = {
				area = west_vanburia_area
				area = north_vanburia_area
				area = east_vanburia_area
			}
			NOT = { country_or_non_sovereign_subject_holds = ROOT }
		}
		
		trigger = {
			NOT = { exists = G97 }
			west_vanburia_area = {
				country_or_non_sovereign_subject_holds = ROOT
				type = all
			}
			north_vanburia_area = {
				country_or_non_sovereign_subject_holds = ROOT
				type = all
			}
			east_vanburia_area = {
				country_or_non_sovereign_subject_holds = ROOT
				type = all
			}
		}
		
		effect = {
			add_prestige = 20
			add_adm_power = 50
			add_dip_power = 50
			add_mil_power = 50
			2164 = {
				add_devastation = 75
				add_base_tax = -2
				add_base_production = -2
				add_base_manpower = -2
			}
			add_country_modifier = {
				name = eord_triumph_nature
				duration = 36500
			}
		}
	}
	
	eord_2_promises_prosperity = {
		icon = mission_iberian_conquistador
		position = 15
		required_missions = { eord_1_ruined_circle }
		
		provinces_to_highlight = {
			region = ruined_isles_region
			NOT = { country_or_non_sovereign_subject_holds = ROOT }
			NOT = {
				ROOT = {
					num_of_provinces_owned_or_owned_by_non_sovereign_subjects_with = {
						region = ruined_isles_region
						value = 8
					}
				}
			}
		}
		
		trigger = {
			num_of_provinces_owned_or_owned_by_non_sovereign_subjects_with = {
				region = ruined_isles_region
				value = 8
			}
			num_of_provinces_owned_or_owned_by_non_sovereign_subjects_with = {
				region = ruined_isles_region
				has_manufactory_trigger = yes
				value = 5
			}
		}
		
		effect = {
			mykx_isles_area = {
				add_permanent_claim = ROOT
			}
			breccia_peaks_area = {
				add_permanent_claim = ROOT
			}
			custom_tooltip = eordand_prosperity_isles
			hidden_effect = {
				every_owned_province = {
					limit = {
						region = ruined_isles_region
						has_manufactory_trigger = yes
						owned_by = ROOT
					}
					add_province_modifier = { name = eord_ruined_isles_growth duration = -1 }
				}
			}
		}
	}
	
	eord_2_aldan = {
		icon = mission_racial
		position = 19
		required_missions = { eord_1_cousins_sun_moon }
		
		provinces_to_highlight = {
			region = endralliande_region
		}
		
		trigger = {
			NOT = { mission_completed = eord_1_venaan }
			num_of_owned_provinces_with = {
				region = endralliande_region
				has_fort_building_trigger = yes
				value = 4
			}
			has_country_modifier = racial_pop_elven_expulsion
		}
		
		effect = {
			increase_free_state_action = { action = genocide }
			leechdens_region = {
				add_permanent_claim = ROOT
			}
			east_effelai_region = {
				add_permanent_claim = ROOT
			}
			west_effelai_region = {
				add_permanent_claim = ROOT
			}
			amadia_region = {
				add_permanent_claim = ROOT
			}
		}
	}
	
	eord_2_foranaela = {
		icon = mission_silblaidd
		position = 20
		required_missions = { eord_2_aldan }
		
		provinces_to_highlight = {
			owned_by = ROOT
			OR = {
				has_elven_majority_trigger = yes
				has_elven_minority_trigger = yes
			}
		}
		
		trigger = {
			custom_trigger_tooltip = {
				tooltip = eordand_foranaela_tooltip
				NOT = {	
					num_of_owned_provinces_with = {
						OR = {
							has_elven_minority_trigger = yes
							has_elven_majority_trigger = yes
						}
						value = 1
					}
				}
			}
			num_of_owned_provinces_with = {
				continent = south_america
				owned_by = ROOT
				value = 40
			}
		}
		
		effect = {
			add_country_modifier = {
				name = eord_foraneala
				duration = -1
			}
		}
	}
}

eordand_2_domandrod = {
	slot = 2
	generic = no
	ai = yes
	has_country_shield = yes
	potential = {
		tag = H21
		has_country_flag = eord_seasonal_completed
	}
	
	eord_2_warmth_growth = {
		icon = mission_alone_in_the_forest_2
		position = 21
		required_missions = {
			eord_3_edge_of_feyrealm
		}
		
		provinces_to_highlight = {
			OR = {
				area = domandrod_gladeway_3_area
				area = domandrod_gladeway_2_area
			}
			NOT = { owned_by = ROOT }
		}
		
		trigger = {
			domandrod_gladeway_3_area = {
				owned_by = ROOT
				type = all
			}
			domandrod_gladeway_2_area = {
				owned_by = ROOT
				type = all
			}
		}
		
		effect = {
			add_prestige = 5
			add_country_modifier = {
				name = eord_domandrod_opening
				duration = 5475
			}
			domandrod_gladeway_3_area = {
				add_province_modifier = {
					name = eord_domandrod_development
					duration = -1
				}
			}
			domandrod_gladeway_2_area = {
				add_province_modifier = {
					name = eord_domandrod_development
					duration = -1
				}
			}
		}
	}
}

eordand_deepwoods_conquest_2 = {
	slot = 2
	generic = no
	ai = yes
	has_country_shield = yes
	potential = {
		tag = H21
		has_country_flag = eordand_deepwoods_conquer
	}
	
	eordconq_4_obscuring_shadows = {
		icon = mission_hanged_tree 
		position = 26
		required_missions = { eordconq_3_beachhead_faithful }
		
		provinces_to_highlight = {
			province_group = deepwoods_shadow_grove
			NOT = { country_or_non_sovereign_subject_holds = ROOT }
		}
		
		trigger = {
			deepwoods_shadow_grove = {
				type = all
				country_or_non_sovereign_subject_holds = ROOT
			}
		}
		
		effect = {
			add_adm_power = 25
			add_dip_power = 25
			add_mil_power = 25
			increase_free_state_action = { action = genocide }
			harpy_hills_region = {
				discover_country = ROOT
			}
			every_owned_province = {
				limit = { 
					province_group = deepwoods_shadow_grove
				}
				add_ruinborn_minority_size_effect = yes
			}
		}
	}
	
	eordconq_2_green_squatters = {
		icon = mission_rb_unite_the_clans
		position = 27
		required_missions = { eordconq_4_obscuring_shadows }
		
		trigger = {
			OR = {
				has_country_modifier = racial_pop_goblin_expulsion
				has_country_modifier = racial_pop_goblin_purge
			}
			OR = {
				has_country_modifier = racial_pop_orcish_expulsion
				has_country_modifier = racial_pop_orcish_purge
			}
		}
		
		effect = {
			hidden_effect = {
				serpentreach_region = {
					discover_country = ROOT
				}
				west_dwarovar_region = {
					discover_country = ROOT
				}
				2425 = {
					discover_country = ROOT
				}
				4997 = {
					discover_country = ROOT
				}
				4996 = {
					discover_country = ROOT
				}
				4153 = {
					discover_country = ROOT
				}
				4998 = {
					discover_country = ROOT
				}
			}
			add_country_modifier = {
				name = eord_safer_woods
				duration = 5475
			}
			every_known_country = {
				limit = { culture_group = dwarven }
				add_opinion = {
					who = ROOT
					modifier = eord_green_squatters
				}
			}
		}
	}
	
	eordconq_2_eye_to_eye = {
		icon = mission_confrontation
		position = 28
		required_missions = { eordconq_2_green_squatters }
		
		trigger = {
			any_ally = {
				culture_group = dwarven
				has_opinion = {
					who = ROOT
					value = 150
				}
			}
		}
		
		effect = {
			mission_reward_artifice_points_5 = yes
			add_country_modifier = {
				name = eord_dwarven_cooperation
				duration = 10950
			}
		}
	}
}

eordand_deepwoods_ally_2 = {
	slot = 2
	generic = no
	ai = yes
	has_country_shield = yes
	potential = {
		tag = H21
		has_country_flag = eordand_deepwoods_ally
	}
	
	eordally_2_secure_outskirts = {
		icon = mission_alone_in_the_wood 
		position = 26
		required_missions = { eordally_3_evergreen_pact }
		
		provinces_to_highlight = {
			province_group = deepwoods_outward_gladeways
			NOT = {
				owner = {
					OR = {
						tag = ROOT
						is_subject_of = ROOT
						alliance_with = ROOT
					}
				}
			}
		}
		
		trigger = {
			deepwoods_outward_gladeways = {
				type = all
				OR = {
					country_or_subject_holds = ROOT
					owner = { alliance_with = ROOT }
				}
			}
		}
		
		effect = {
			deepwoods_outward_gladeways = {
				add_province_modifier = {
					name = eord_gladeway_twisting_paths
					duration = -1
				}
			}
		}
	}
}

eordand_3 = {
	slot = 3
	generic = no
	ai = yes
	has_country_shield = yes
	potential = {
		tag = H21
	}
	
	eord_3_aelnar = {
		icon = mission_holy_star 
		position = 1
		required_missions = {}
		
		trigger = {
			war_with = Z43
		}
		
		effect = {
			add_country_modifier = {
				name = eord_aelnar
				duration = 1825
			}
		}
	}
	
	eord_3_marrliande = {
		icon = mission_thirsting_queen 
		position = 2
		required_missions = {}
		
		trigger = {
			war_with = G95
		}
		
		effect = {
			add_country_modifier = {
				name = eord_marlliande
				duration = 1825
			}
		}
	}
	eord_3_ironhunger = {
		icon = mission_smith
		position = 3
		required_missions = { }
		
		trigger = {
			iron = 3
		}
		
		effect = {
			add_mil_power = 50
			add_country_modifier = {
				name = eord_ironhunger
				duration = 9125
			}
		}
	}
	
	eord_3_break_copperlords = {
		icon = mission_industria_sedera
		position = 4
		required_missions = {
			eord_1_herbs_pixie_dust
			eord_3_ironhunger
			eord_5_precursor_legacy
		}
		
		trigger = {
			dip_power = 100
			copper = 5
			OR = {
                treasury = 2000
                years_of_income = 2
            }
		}
		
		effect = {
			add_dip_power = -100
			if = {
                limit = {
                    years_of_income = 2
                    NOT = { treasury = 2000 }
                }
                add_years_of_income = -2
            }
            else_if = {
                limit = {
                    treasury = 2000
                }
                add_treasury = -2000
            }
			add_country_modifier = {
				name = eord_break_copperlords
				duration = -1
			}
		}
	}
	
	eord_3_eordan_artificery = {
		icon = mission_delighted_mage
		position = 5
		required_missions = {
			eord_2_alchemical_security
			eord_3_break_copperlords
			eord_4_coldsteel
		}
		
		trigger = {
			stability = 2
			has_estate = estate_artificers
			estate_loyalty = {
				estate = estate_artificers
				loyalty = 60
			}
			has_estate = estate_mages
			estate_loyalty = {
				estate = estate_mages
				loyalty = 60
			}
		}
		
		effect = {
			mission_reward_artifice_points_5 = yes
			add_country_modifier = {
				name = eord_artificery_harmony
				duration = -1
			}
		}
	}
}

eordand_spring_3 = {
	slot = 3
	generic = no
	ai = yes
	has_country_shield = yes
	potential = {
		tag = H21
		religion = spring_court
	}
	
	eordspring_3_gardening = {
		icon = mission_che_botanical_exports
		position = 6
		required_missions = {}
		
		trigger = {
			num_of_owned_provinces_with = {
				OR = {
					has_building = farm_estate
					has_building = plantations
					has_building = tradecompany
				}
				value = 5
			}
		}
		
		effect = {
			add_adm_power = 50
			add_dip_power = 50
			add_mil_power = 50
			add_country_modifier = {
				name = eord_seeds_sown
				duration = 9125
			}
		} 
	}
	
	eordspring_3_full_blossom = {
		icon = mission_secure_khandesh
		position = 7
		required_missions = { eordspring_3_gardening }
		
		trigger = {
			num_of_owned_provinces_with = {
				superregion = eordand_superregion
				development = 20
				value = 10
			}
		}
		
		effect = {
			add_prestige = 15
			add_country_modifier = {
				name = eord_full_blossom
				duration = 14600
			}
		} 
	}
	
	eordspring_3_dawnfire_academy = {
		icon = mission_metropolis_of_the_deccan
		position = 8
		required_missions = { eordspring_3_full_blossom }
		
		provinces_to_highlight = {
			province_id = 2007
			NOT = {
				AND = {
					is_core = ROOT
					development = 40
				}
			}
		}
		
		trigger = {
			adm_power = 50
			dip_power = 50
			treasury = 200
			2007 = {
				is_core = ROOT
				development = 40
			}
		}
		
		effect = {
			add_adm_power = -50
			add_dip_power = -50
			add_treasury = -200
			2007 = {
				add_building_construction = {
					building = university
					cost = 0
					speed = 0.5
				}
			}
			add_government_reform = eordand_academical_realm
			hidden_effect = {
				set_country_flag = eord_seasonal_completed
			}
			swap_non_generic_missions = yes
		} 
	}
}

eordand_summer_3 = {
	slot = 3
	generic = no
	ai = yes
	has_country_shield = yes
	potential = {
		tag = H21
		religion = summer_court
	}
	
	eordsummer_3_secure_shores = {
		icon = mission_arabian_sea_trade
		position = 6
		required_missions = {}
		
		trigger = {
			naval_forcelimit = 40
			num_of_heavy_ship = 10
		}
		effect = {
			add_country_modifier = {
				name = eord_naval_expansion
				duration = 18250
			}
		} 
	}
	
	eordsummer_3_deal_with_merchant_lords = {
		icon = mission_sea_battles
		position = 7
		required_missions = { eordsummer_3_secure_shores }
		
		trigger = {
			num_of_light_ship = 25
			estate_loyalty = {
				estate = estate_burghers
				loyalty = 60
			}
			dip_power = 100
		}
		effect = {
			add_dip_power = -100
			country_event = { id = eordand.22 }
			custom_tooltip = eordand_twilight_of_the_merchant_lords_tt
		} 
	}
	
	eordsummer_3_solstice = {
		icon = mission_sunset
		position = 8
		required_missions = { eordsummer_3_deal_with_merchant_lords }
		
		trigger = {
			num_of_owned_provinces_with = {
				has_dock_building_trigger = yes
				value = 10
			}
			num_of_owned_provinces_with = {
				has_shipyard_building_trigger = yes
				value = 10
			}
			OR = {
				full_idea_group = maritime_ideas
				full_idea_group = naval_ideas
				full_idea_group = trade_ideas
			}
		}
		
		effect = {
			add_navy_tradition = 20
			add_mercantilism = 5
			add_government_reform = eordand_sunlit_thalassocracy
			hidden_effect = {
				set_country_flag = eord_seasonal_completed
			}
			swap_non_generic_missions = yes
		} 
	}
}

eordand_autumn_3 = {
	slot = 3
	generic = no
	ai = yes
	has_country_shield = yes
	potential = {
		tag = H21
		religion = autumn_court
	}
	
	eordautumn_3_eternal_discipline = {
		icon = mission_mnd_dai_control_the_army
		position = 6
		required_missions = {}
		
		trigger = {
			land_forcelimit = 40
			army_professionalism = 0.25
		}
		
		effect = {
			add_country_modifier = {
				name = eord_drills
				duration = 9125
			}
		} 
	}
	
	eordautumn_3_preparation_long_winter = {
		icon = mission_iroquois_food_surplus
		position = 7
		required_missions = { eordautumn_3_eternal_discipline }
		
		trigger = {
			manpower_percentage = 0.8
			num_of_generals = 3
		}
		
		effect = {
			add_country_modifier = {
				name = eord_preparation
				duration = 18250
			}
		} 
	}
	
	eordautumn_3_centralize_legions = {
		icon = knights_of_the_new_world
		position = 8
		required_missions = { eordautumn_3_preparation_long_winter }
		
		trigger = {
			num_of_owned_provinces_with = {
				has_manpower_building_trigger = yes
				value = 10
			}
			num_of_owned_provinces_with = {
				has_forcelimit_building_trigger = yes
				value = 10
			}
			mil_power = 100
		}
		
		effect = {
			add_mil_power = -100
			add_army_tradition = 20
			add_army_professionalism = 0.1
			add_government_reform = eordand_legionary_command
			hidden_effect = {	
				set_country_flag = eord_seasonal_completed
			}
			swap_non_generic_missions = yes
		} 
	}
}

eordand_winter_3 = {
	slot = 3
	generic = no
	ai = yes
	has_country_shield = yes
	potential = {
		tag = H21
		religion = winter_court
	}
	
	eordwinter_3_glacial_advance = {
		icon = mission_rb_settle_the_north
		position = 6
		required_missions = {}
		
		trigger = {
			num_of_owned_provinces_with = {
				has_fort_building_trigger = yes
				value = 12
			}
		}
		
		effect = {
			add_country_modifier = {
				name = eord_glacial_advance
				duration = 18250
			}
		} 
	}
	
	eordwinter_3_avalanche = {
		icon = the_alpine_wall
		position = 7
		required_missions = { eordwinter_3_glacial_advance }
		
		provinces_to_highlight = {
			OR = {
				AND = {
					area = armonadh_area
					NOT = { owned_by = ROOT }
				}
				AND = {
					province_id = 1984
					NOT = {
						AND = {
							owned_by = ROOT
							is_core = ROOT
							has_fort_building_trigger = yes
						}
					}
				}
			}
		}
		
		trigger = {
			armonadh_area = {
				owned_by = ROOT
				type = all
			}
			1984 = {
				owned_by = ROOT
				is_core = ROOT
				has_fort_building_trigger = yes
			}
		}
		
		effect = {
			1984 = {
				add_province_modifier = {
					name = eord_avalanche
					duration = -1
				}
			}
		} 
	}
	
	eordwinter_3_enforced_isolation = {
		icon = mission_protect_white_sea_trade
		position = 8
		required_missions = { eordwinter_3_avalanche }
		
		trigger = {
			dip_power = 100
			num_of_diplomatic_relations = 4
			OR = {
				full_idea_group = defensive_ideas
				full_idea_group = diplomatic_ideas
				full_idea_group = influence_ideas
			}
		}
		
		effect = {
			add_dip_power = -100
			every_ally = {
				add_trust = {
					who = ROOT
					value = 20
					mutual = yes
				}
			}
			every_subject_country = {
				add_trust = {
					who = ROOT
					value = 20
					mutual = yes
				}
			}
			add_government_reform = eordand_frozen_heart
			hidden_effect = {
				set_country_flag = eord_seasonal_completed
			}
			swap_non_generic_missions = yes
		} 
	}
}

eordand_eordellon_3 = {
	slot = 3
	generic = no
	ai = yes
	has_country_shield = yes
	potential = {
		tag = H21
		religion = eordellon
	}
	
	eordellon_3_peitar_council = {
		icon = mission_monarch_diplomacy
		position = 6
		required_missions = {}
		
		provinces_to_highlight = {
			OR = {
				province_id = 2014
				province_id = 2049
				province_id = 2042
				province_id = 2046
				province_id = 1994
			}
			NOT = { owned_by = ROOT }
		}
		
		trigger = {
			num_of_owned_provinces_with = {
				OR = {
					province_id = 2014
					province_id = 2049
					province_id = 2042
					province_id = 2046
					province_id = 1994
				}
				value = 4
			}
		}
		
		effect = {
			every_owned_province = {
				limit = {
					OR = {
						province_id = 2014
						province_id = 2049
						province_id = 2042
						province_id = 2046
						province_id = 1994
					}
				}
				add_base_tax = 2
				add_base_production = 2
				add_base_manpower = 2
			}
			add_country_modifier = { name = eord_peitar_council duration = 9125 }
		} 
	}
	eordellon_3_true_balance = {
		icon = mission_feast
		position = 7
		required_missions = { eordellon_3_peitar_council }
		
		trigger = {
			adm_power = 100
			dip_power = 100
			num_of_owned_provinces_with = {
				value = 20
				superregion = eordand_superregion
				custom_trigger_tooltip = {
					tooltip = is_prosperous_tt
					is_prosperous = yes
				}
				religion = eordellon
			}
		}
		
		effect = {
			add_adm_power = -100
			add_dip_power = -100
			add_stability_or_adm_power = yes
			primary_and_ruler_culture_change = { race = ruinborn new_culture = peitar }
			custom_tooltip = eordand_true_balance
			hidden_effect = {
				eordand_superregion = {
					limit = {
						owned_by = ROOT
						is_prosperous = yes
						NOT = { culture = peitar }
						religion = eordellon
					}
					change_culture = peitar
					owner = {
						add_adm_power = 3
						add_dip_power = 3
					}
				}
			}
		} 
	}
	
	eordellon_3_service_fey_lords = {
		icon = mission_forest_shrine
		position = 8
		required_missions = { eordellon_3_true_balance }
		
		provinces_to_highlight = {
			superregion = eordand_superregion
			is_city = yes
			NOT = { religion = eordellon }
		}
		
		trigger = {
			eordand_superregion = {
				OR = {
					religion = eordellon
					is_city = no
				}
				type = all
			}
			development_in_provinces = {
				value = 70
				has_terrain = ancient_forest
			}
		}
		
		effect = {
			add_legitimacy = 25
			add_country_modifier = { name = eord_lord_regent duration = -1 }
			add_government_reform = eordand_lord_regent_domanrod
			hidden_effect = {
				set_country_flag = eord_seasonal_completed
			}
			swap_non_generic_missions = yes
		} 
	}
}

eordand_3_domandrod = {
	slot = 3
	generic = no
	ai = yes
	has_country_shield = yes
	potential = {
		tag = H21
		has_country_flag = eord_seasonal_completed
	}
	
	eord_3_domandrod_whispers = {
		icon = mission_forest_pilgrim
		position = 9
		required_missions = {
			eord_2_past_haraf
			eord_4_poking_dragon
		}
		
		trigger = {
			2027 = {
				is_core = ROOT
				NOT = { has_construction = culture }
				NOT = { has_construction = building }
				NOT = { has_construction = missionary }
				NOT = { has_construction = colonist }
			}
			2042 = {
				is_core = ROOT
				NOT = { has_construction = culture }
				NOT = { has_construction = building }
				NOT = { has_construction = missionary }
				NOT = { has_construction = colonist }
			}
			2003 = {
				is_core = ROOT
				NOT = { has_construction = culture }
				NOT = { has_construction = building }
				NOT = { has_construction = missionary }
				NOT = { has_construction = colonist }
			}
			1994 = {
				is_core = ROOT
				NOT = { has_construction = culture }
				NOT = { has_construction = building }
				NOT = { has_construction = missionary }
				NOT = { has_construction = colonist }
			}
			1964 = {
				is_core = ROOT
				NOT = { has_construction = culture }
				NOT = { has_construction = building }
				NOT = { has_construction = missionary }
				NOT = { has_construction = colonist }
			}
		}
		effect = {
			hidden_effect = {
				set_country_flag = eord_domandrod_opened
			}
			domandrod_region = {
				discover_country = ROOT
			}
			6558 = {
				discover_country = ROOT
			}
			2027 = {
				add_great_project = {
					type = domandrod_spring_gate
					instant = no
				}
			}
			2042 = {
				add_great_project = {
					type = domandrod_summer_gate
					instant = no
				}
			}
			2003 = {
				add_great_project = {
					type = domandrod_autumn_gate
					instant = no
				}
			}
			1994 = {
				add_great_project = {
					type = domandrod_winter_gate
					instant = no
				}
			}
			1964 = {
				add_great_project = {
					type = domandrod_winter_gate2
					instant = no
				}
			}
		}
	}
	
	eord_3_edge_of_feyrealm = {
		icon = mission_alone_in_the_forest
		position = 20
		required_missions = {
			eord_3_domandrod_whispers
		}
		
		trigger = {
			OR = {
                treasury = 1000
                years_of_income = 1
            }
			adm_power = 50
			dip_power = 50
			mil_power = 50
		}
		
		effect = {
			if = {
                limit = {
                    years_of_income = 1
                    NOT = { treasury = 1000 }
                }
                add_years_of_income = -1
            }
            else_if = {
                limit = {
                    treasury = 1000
                }
                add_treasury = -1000
            }
			add_adm_power = -50
			add_dip_power = -50
			add_mil_power = -50
			add_country_modifier = { name = eord_domandrod_opening duration = 18250 }
		}
	}
	
	eord_3_precursor_investigation = {
		icon = mission_treasure_room
		position = 21
		required_missions = {
			eord_3_edge_of_feyrealm
		}
		
		provinces_to_highlight = {
			area = domandrod_central_glade_area
			NOT = { owned_by = ROOT }
		}
		
		trigger = {
			domandrod_central_glade_area = {
				owned_by = ROOT
				type = all
			}
		}
		
		effect = {
			add_prestige = 5
			add_country_modifier = { name = eord_domandrod_opening duration = 5475 }
			domandrod_central_glade_area = {
				add_province_modifier = { name = eord_domandrod_development duration = -1 }
			}
		}
	}
	
	eord_3_interplanar_adventures = {
		icon = mission_magy
		position = 22
		required_missions = {
			eord_2_warmth_growth
			eord_3_precursor_investigation
			eord_4_wild_wonderful
		}
		
		trigger = {
			stability = 2
			OR = {
                treasury = 2000
                years_of_income = 2
            }
			adm_power = 100
			dip_power = 100
			mil_power = 100
		}
		
		effect = {
			if = {
                limit = {
                    years_of_income = 2
                    NOT = { treasury = 2000 }
                }
                add_years_of_income = -2
            }
            else_if = {
                limit = {
                    treasury = 2000
                }
                add_treasury = -2000
            }
			add_adm_power = -100
			add_dip_power = -100
			add_mil_power = -100
			if = {
				limit = { 6241 = { is_city = no } }
				6241 = {
					cede_province = ROOT
					add_core = ROOT
				}
			}
			hidden_effect = {
				set_country_flag = eordand_disaster_start
				6242 = {
					set_province_flag = portal_entrance
				}
				6243 = {
					set_province_flag = portal_entrance
				}
				6244 = {
					set_province_flag = portal_entrance
				}
				6245 = {
					set_province_flag = portal_entrance
				}
			}
		}
	}
	
	eord_3_familiar_forest = {
		icon = mission_che_the_cave_country
		position = 23
		required_missions = { eord_3_interplanar_adventures }
		
		provinces_to_highlight = {
			exists = H99
			OR = {
				area = domandrod_central_glade_area
				area = domandrod_portal_area
			}
			NOT = { owned_by = ROOT }
		}
		
		trigger = {
			custom_trigger_tooltip = {
				tooltip = eordand_portal_tooltip
				if = {
					limit = { exists = H99 }
					domandrod_central_glade_area = {
						owned_by = ROOT
						type = all
					}
					domandrod_portal_area = {
						owned_by = ROOT
						type = all
					}
				}
				else = {
					has_country_flag = eord_disaster_ended
				}
			}
		}
		
		effect = {
			1782 = {
				discover_country = ROOT
			}
			hidden_effect = {
				west_deepwoods_region = {
					discover_country = ROOT
				}
				east_deepwoods_region = {
					discover_country = ROOT
				}
				6258 = {
					discover_country = ROOT
				}
				1261 = {
					discover_country = ROOT
				}
				6241 = { set_province_flag = domandrod_fey_portal_open }
				6258 = { set_province_flag = deepwoods_fey_portal_open }
			}
			if = {
				limit = { 6241 = { is_city = no } }
				6241 = {
					cede_province = ROOT
					add_core = ROOT
				}
			}
			else = {
				6241 = { add_core = ROOT }
			}
			6241 = { 
				add_great_project = {
					type = domandrod_fey_portal
					instant = no
				} 
			}
			if = {
				limit = { 6258 = { is_city = no } }
				6258 = {
					cede_province = ROOT
					add_core = ROOT
				}
			}
			else = {
				6258 = { add_core = ROOT }
			}
			6258 = {
				add_great_project = {
					type = deepwoods_fey_portal
					instant = no
				}
			}
			country_event = { id = eordand.39 days = 1 }
			custom_tooltip = eordand_across_the_portal_tt
		}
	}
}

eordand_deepwoods_conquest_3 = {
	slot = 3
	generic = no
	ai = yes
	has_country_shield = yes
	potential = {
		tag = H21
		has_country_flag = eordand_deepwoods_conquer
	}
	
	eordconq_3_beachhead_faithful = {
		icon = mission_che_principal_peole 
		position = 25
		required_missions = { eord_3_familiar_forest }
		
		trigger = {
			num_of_provinces_owned_or_owned_by_non_sovereign_subjects_with = {
				superregion = deepwoods_superregion
				value = 4
			}
		}
		
		effect = {
			deepwoods_superregion = {
				add_permanent_claim = ROOT
			}
			every_owned_province = {
				limit = { superregion = deepwoods_superregion }
				add_ruinborn_minority_size_effect = yes
			}
		}
	}
	
	eordconq_3_enchanting_aromas = {
		icon = mission_modernize_production 
		position = 26
		required_missions = { eordconq_3_beachhead_faithful }
		
		provinces_to_highlight = {
			province_group = deepwoods_flower_grove
			NOT = { country_or_non_sovereign_subject_holds = ROOT }
		}
		
		trigger = {
			deepwoods_flower_grove = {
				type = all
				country_or_non_sovereign_subject_holds = ROOT
			}
		}
		
		effect = {
			add_adm_power = 25
			add_dip_power = 25
			add_mil_power = 25
			south_castanor_region = {
				discover_country = ROOT
			}
			every_owned_province = {
				limit = { 
					province_group = deepwoods_flower_grove
				}
				add_ruinborn_minority_size_effect = yes
			}
		}
	}
	
	eordconq_3_thorns_feyrealm = {
		icon = mission_clear_the_delta 
		position = 27
		required_missions = { 
			eordconq_2_tranquil_waters
			eordconq_3_enchanting_aromas
			eordconq_4_obscuring_shadows
		}
		
		provinces_to_highlight = {
			province_group = deepwoods_thorn_grove
			NOT = { country_or_non_sovereign_subject_holds = ROOT }
		}
		
		trigger = {
			deepwoods_thorn_grove = {
				type = all
				country_or_non_sovereign_subject_holds = ROOT
			}
		}
		
		effect = {
			add_adm_power = 25
			add_dip_power = 25
			add_mil_power = 25
			every_owned_province = {
				limit = { 
					province_group = deepwoods_thorn_grove
				}
				add_ruinborn_minority_size_effect = yes
			}
		}
	}
	
	eordconq_3_true_servants_of_fey = {
		icon = mission_rb_conquer_the_highlands 
		position = 28
		required_missions = { eordconq_3_thorns_feyrealm }
		
		provinces_to_highlight = {
			superregion = deepwoods_superregion
			NOT = { country_or_non_sovereign_subject_holds = ROOT }
		}
		
		trigger = {
			deepwoods_superregion = {
				type = all
				country_or_non_sovereign_subject_holds = ROOT
			}
		}
		
		effect = {
			add_splendor = 800
			custom_tooltip = eordand_spreading_roots
			hidden_effect = {
				east_overmarch_area = {
					add_permanent_claim = ROOT
				}
				central_dreadmire_area = {
					add_permanent_claim = ROOT
				}
				west_overmarch_area = {
					add_permanent_claim = ROOT
				}
				flooded_coast_area = {
					add_permanent_claim = ROOT
				}
				north_dreadmire_area = {
					add_permanent_claim = ROOT
				}
				dostans_way_area = {
					add_permanent_claim = ROOT
				}
				beastgrave_area = {
					add_permanent_claim = ROOT
				}
				banesfork_area = {
					add_permanent_claim = ROOT
				}
				swapstoke_area = {
					add_permanent_claim = ROOT
				}
				hornwood_area = {
					add_permanent_claim = ROOT
				}
				doewood_area = {
					add_permanent_claim = ROOT
				}
				stunad_skomdihr_area = {
					add_permanent_claim = ROOT
				}
				firanyalen_area = {
					add_permanent_claim = ROOT
				}
				azmak_area = {
					add_permanent_claim = ROOT
				}
				zokkorna_caverns_area = {
					add_permanent_claim = ROOT
				}
			}
		}
	}
	eordconq_3_start_of_a_new_season = {
		icon = mission_secret_of_the_veil
		position = 29
		required_missions = { eordconq_3_true_servants_of_fey }
		
		trigger = {
			adm_power = 100
			dip_power = 100
			mil_power = 100
			deepwoods_superregion  = {
				type = all
				country_or_non_sovereign_subject_holds = ROOT
			}
			if = {
				limit = { religion = spring_court }
				deepwoods_flower_grove = {
					religion = spring_court
				}
				development_in_provinces = {
					province_group = deepwoods_flower_grove
					value = 70
				}
			}
			else_if = {
				limit = { religion = summer_court }
				deepwoods_lake_grove = { religion = summer_court }
				development_in_provinces = {
					province_group = deepwoods_lake_grove
					value = 70
				}
			}
			else_if = {
				limit = { religion = autumn_court }
				deepwoods_hunter_grove = {
					religion = autumn_court
				}
				development_in_provinces = {
					province_group = deepwoods_hunter_grove
					value = 65
				}
			}
			else_if = {
				limit = { religion = winter_court }
				deepwoods_river_grove = {
					religion = winter_court
				}
				development_in_provinces = {
					province_group = deepwoods_river_grove
					value = 50
				}
			}
			else_if = {
				limit = { religion = eordellon }
				deepwoods_mountain_grove = {
					religion = eordellon
				}
				development_in_provinces = {
					province_group = deepwoods_mountain_grove
					value = 70
				}
			}
		}
		
		effect = {
			add_adm_power = -100
			add_dip_power = -100
			add_mil_power = -100
			if = {
				limit = { religion = spring_court }
				deepwoods_superregion = {
					add_province_modifier = { name = eord_winds_of_growth duration = -1 }
				}
				deepwoods_flower_grove = {
					add_province_modifier = { name = eord_vernal_wellspring duration = -1 }
				}
			}
			else_if = {
				limit = { religion = summer_court }
				deepwoods_superregion = {
					add_province_modifier = { name = eord_winds_of_prosperity duration = -1 }
				}
				deepwoods_lake_grove = {
					add_province_modifier = { name = eord_estival_wellspring duration = -1 }
				}
			}
			else_if = {
				limit = { religion = autumn_court }
				deepwoods_superregion = {
					add_province_modifier = { name = eord_winds_of_vigilance duration = -1 }
				}
				deepwoods_hunter_grove = {
					add_province_modifier = { name = eord_autumnal_wellspring duration = -1 }
				}
			}
			else_if = {
				limit = { religion = winter_court }
				deepwoods_superregion = {
					add_province_modifier = { name = eord_winds_of_serenity duration = -1 }
				}
				deepwoods_river_grove = {
					add_province_modifier = { name = eord_hiemal_wellspring duration = -1 }
				}
			}
			else_if = {
				limit = { religion = eordellon }
				deepwoods_superregion = {
					add_province_modifier = { name = eord_winds_of_equilibrium duration = -1 }
				}
				deepwoods_mountain_grove = {
					add_province_modifier = { name = eord_well_of_stability duration = -1 }
				}
			}
		}
	}
}

eordand_deepwoods_ally_3 = {
	slot = 3
	generic = no
	ai = yes
	has_country_shield = yes
	potential = {
		tag = H21
		has_country_flag = eordand_deepwoods_ally
	}
	
	eordally_3_evergreen_pact = {
		icon = mission_secret_of_the_veil
		position = 25
		required_missions = { eord_3_familiar_forest }
		
		trigger = {
			dip_power = 200
			if = {
				limit = { 
					exists = I45
					I45 = { is_subject = no }
				}
				alliance_with = I45
				I45 = {
					has_opinion = {
						who = ROOT
						value = 175
					}
				}
			}
			else_if = {
				limit = { NOT = { any_country = { primary_culture = wood_elf } } }
				num_of_provinces_owned_or_owned_by_non_sovereign_subjects_with = {
					culture = wood_elf
					value = 4
				}
			}
			else = {
				OR = {
					calc_true_if = {
						all_ally = {
							has_opinion = {
								who = ROOT
								value = 175
							}
							culture = wood_elf
						}
						amount = 1
					}
					calc_true_if = {
						all_subject_country = {
							has_opinion = {
								who = ROOT
								value = 150
							}
							culture = wood_elf
						}
						amount = 1
					}
				}
			}
		}
		
		effect = {
			add_dip_power = -200
			add_country_modifier = { name = eord_evergreen_pact duration = -1 }
			largest_increase_of_elven_tolerance_effect = yes
			if = {
				limit = { exists = I45 }
				I45 = {
					add_trust = {
						who = ROOT
						value = 25
						mutual = yes
					}
				}
			}
			else_if = {
				limit = { NOT = { any_country = { primary_culture = wood_elf } } }
				add_country_modifier = { name = eord_reclaim_deepwoods duration = 18250 }
			}
			else = {
				every_ally = {
					limit = { culture = wood_elf }
					add_trust = {
						who = ROOT
						value = 25
						mutual = yes
					}
				}
				every_subject_country = {
					limit = { culture = wood_elf }
					add_trust = {
						who = ROOT
						value = 25
						mutual = yes
					}
				}
			}
		}
	}
	
	eordally_3_glade_clan_hierarchy = {
		icon = mission_embassy_to_the_west 
		position = 26
		required_missions = { eordally_3_evergreen_pact }
		
		trigger = {
			if = {
				limit = { exists = I45 }
				I45 = {
					num_of_provinces_owned_or_owned_by_non_sovereign_subjects_with = {
						superregion = deepwoods_superregion
						value = 40
					}
				}
			}
			else = {
				OR = {
					OR = {
						calc_true_if = {
							all_ally = {
								has_opinion = {
									who = ROOT
									value = 150
								}
								culture = wood_elf
							}
							amount = 4
						}
						calc_true_if = {
							all_subject_country = {
								has_opinion = {
									who = ROOT
									value = 150
								}
								culture = wood_elf
							}
							amount = 4
						}
					}
					num_of_provinces_owned_or_owned_by_non_sovereign_subjects_with = {
						superregion = deepwoods_superregion
						value = 30
					}
				}
			}
		}
		
		effect = {
			add_dip_power = 50
			add_stability_or_adm_power = yes
			every_subject_country = {
				limit = { culture = wood_elf }
				add_liberty_desire = -10
			}
		}
	}
	
	eordally_3_leadership_of_home = {
		icon = mission_aelnar_corps 
		position = 27
		required_missions = { 
			eordally_3_glade_clan_hierarchy
			eordally_2_secure_outskirts
			eordally_4_mountainhall_ciranmyna
		}
		
		provinces_to_highlight = {
			superregion = deepwoods_superregion
			NOT = {
				owner = {
					OR = {
						tag = ROOT
						is_subject_of = ROOT
						alliance_with = ROOT
					}
				}
			}
		}
		
		trigger = {
			deepwoods_superregion = {
				type = all
				OR = {
					country_or_subject_holds = ROOT
					owner = { alliance_with = ROOT }
				}
			}
		}
		
		effect = {
			country_event = { id = eordand.40 }
			custom_tooltip = eordand_domandrod_over_deepwoods_tt
		}
	}
	
	eordally_3_tunnel_of_jade = {
		icon = mission_transmutation 
		position = 28
		required_missions = { eordally_3_leadership_of_home }
		
		provinces_to_highlight = {
			OR = {
				AND = {
					NOT = { exists = I45 }
					superregion = deepwoods_superregion
					NOT = { country_or_non_sovereign_subject_holds = ROOT }
				}
				AND = {
					OR = {
						province_id = 6258
						province_id = 6241
					}
					NOT = {
						AND = {
							has_tax_building_trigger = yes
							has_building = mage_tower
						}
					}
				}
			}
		}
		
		trigger = {
			if = {
				limit = { exists = I45 }
				OR = {
					I45 = {
						is_subject = yes
					}
					alliance_with = I45
				}
			}
			else = {
				deepwoods_superregion = {
					type = all
					country_or_non_sovereign_subject_holds = ROOT
				}
			}
			6258 = {
				has_tax_building_trigger = yes
				has_building = mage_tower
			}
			6241 = {
				has_tax_building_trigger = yes
				has_building = mage_tower
			}
			has_adm_advisor_3 = yes
			has_dip_advisor_3 = yes
			has_mil_advisor_3 = yes
		}
		
		effect = {
			6258 = {
				add_province_modifier = {
					name = eord_jade_tunnel
					duration = -1
				}
			}
			6241 = {
				add_province_modifier = {
					name = eord_jade_tunnel
					duration = -1
				}
			}
		}
	}
}

eordand_4 = {
	slot = 4
	generic = no
	ai = yes
	has_country_shield = yes
	potential = {
		tag = H21
	}
	
	eord_4_hierarchy = {
		icon = mission_establish_the_prikazy 
		position = 1
		required_missions = {}
		
		trigger = {
			war_with = A79
		}
		
		effect = {
			add_country_modifier = {
				name = eord_hierarchy
				duration = 1825
			}
		}
	}
	
	eord_4_mykx = {
		icon = reclaim_the_aegean 
		position = 2
		required_missions = {}
		
		trigger = {
			war_with = G93
		}
		
		effect = {
			add_country_modifier = {
				name = eord_mykx
				duration = 1825
			}
		}
	}
	
	eord_4_coldsteel = {
		icon = polish_subjects
		position = 4
		required_missions = { 
			eord_3_ironhunger
			eord_5_precursor_legacy
		}
		
		provinces_to_highlight = {
			owned_by = ROOT
			OR = {
				trade_goods = copper
				trade_goods = iron
				trade_goods = mithril
			}
			NOT = { has_building = weapons }
		}
		
		trigger = {
			num_of_owned_provinces_with = {
				has_building = weapons
				value = 6
			}
			mil_power = 100
		}
		
		effect = {
			add_mil_power = -100
			add_country_modifier = {
				name = eord_coldsteel
				duration = -1
			}
		}
	}
	
	eord_4_randrunnse = {
		icon = mission_scandinavian_port_authority 
		position = 6
		required_missions = {}
		
		provinces_to_highlight = {
			OR = {
				area = fogharbac_area
				area = fardach_area
				area = gemradcurt_area
				area = jhorgashirr_area
				area = galbhan_area
			}
			NOT = { owned_by = ROOT }
		}
		
		trigger = {
			fogharbac_area = {
				owned_by = ROOT
				type = all
			}
			fardach_area = {
				owned_by = ROOT
				type = all
			}
			gemradcurt_area = {
				owned_by = ROOT
				type = all
			}
			jhorgashirr_area = {
				owned_by = ROOT
				type = all
			}
			galbhan_area = {
				owned_by = ROOT
				type = all
			}
		}
		
		effect = {
			add_country_modifier = {
				name = eord_randrunnse
				duration = 7300
			}
		}
	}
	
	eord_4_poking_dragon = {
		icon = mission_duel_snow 
		position = 8
		required_missions = { eord_5_beyond_mountains }
		
		provinces_to_highlight = {
			OR = {
				area = svemel_area
				area = drozmajaivn_area
				area = juzondezan_area
				area = pomvasonn_area
			}
			NOT = { owned_by = ROOT }
		}
		
		trigger = {
			calc_true_if = {
				amount = 8
				svemel_area = {
					owned_by = ROOT
					type = all
				}
				drozmajaivn_area = {
					owned_by = ROOT
					type = all
				}
				juzondezan_area = {
					owned_by = ROOT
					type = all
				}
				pomvasonn_area = {
					owned_by = ROOT
					type = all
				}
			}
		}
		
		effect = {
			mocvare_area = {
				add_permanent_claim = ROOT
			}
			grebniesth_area = {
				add_permanent_claim = ROOT
			}
			brelar_area = {
				add_permanent_claim = ROOT
			}
		}
	}
	
	eord_4_claim_hoard = {
		icon = mission_zambezi_gold 
		position = 9
		required_missions = { eord_4_poking_dragon }
		
		provinces_to_highlight = {
			province_id = 1191
			NOT = { owned_by = ROOT }
		}
		
		trigger = {
			1191 = {
				owned_by = ROOT
			}
		}
		
		effect = {
			country_event = { id = eordand.23 days = 30 }
			malacnar_area = {
				add_permanent_claim = ROOT
			}
			trojvare_area = {
				add_permanent_claim = ROOT
			}
			arganjuzorn_area = {
				add_permanent_claim = ROOT
			}
			custom_tooltip = eordand_hoard_of_the_dragon_prince_tt
		}
	}
	
	eord_4_headwaters_ynn = {
		icon = mission_ne_birch_bark_canoes 
		position = 10
		required_missions = { eord_4_claim_hoard }
		
		provinces_to_highlight = {
			region = rzenta_region
			NOT = { country_or_non_sovereign_subject_holds = ROOT }
		}
		
		trigger = {
			rzenta_region = {
				type = all
				country_or_non_sovereign_subject_holds = ROOT
			}
		}
		
		effect = {
			1191 = {
				add_trade_modifier = {
					who = ROOT
					duration = -1
					power = 25
					key = STRONG_MERCHANTS
				}
			}
			1957 = {
				add_trade_modifier = {
					who = ROOT
					duration = -1
					power = 25
					key = STRONG_MERCHANTS
				}
			}
		}
	}
}

eordand_4_2 = {
	slot = 4
	generic = no
	ai = yes
	has_country_shield = yes
	potential = {
		tag = H21
	}
	
	eord_4_claiming_titles = {
		icon = mission_monarch_in_throne_room 
		position = 13
		required_missions = {
		}
		
		provinces_to_highlight = {
			OR = {
				province_id = 1138
				province_id = 1139
				province_id = 1142
				province_id = 1133
			}
			NOT = { country_or_non_sovereign_subject_holds = ROOT }
		}
		
		trigger = {
			custom_trigger_tooltip = {
				tooltip = eord_ynnmissions_tooltip
				has_country_flag = eord_seasonal_ynn_completed
			}
			calc_true_if = {
				amount = 3
				owns_or_non_sovereign_subject_of = 1138
				owns_or_non_sovereign_subject_of = 1139
				owns_or_non_sovereign_subject_of = 1142
				owns_or_non_sovereign_subject_of = 1133
			}
		}
		
		effect = {
			sarda_region = {
				add_permanent_claim = ROOT
			}
		}
	}
	
	eord_4_cliffs_cascades = {
		icon = mission_rb_conquer_the_isles 
		position = 14
		required_missions = { eord_4_claiming_titles }
		
		provinces_to_highlight = {
			OR = {
				AND = {
					province_group = ynncliffwalls_upper
					NOT = {
						ROOT = {
							num_of_provinces_owned_or_owned_by_non_sovereign_subjects_with = {
								value = 6
								province_group = ynncliffwalls_upper
							}
						}
					}
				}
				AND = {
					OR = {
						province_id = 1949 #Spoorland Gap
						province_id = 1042 #Fort Thorn
						province_id = 1031 #Venaine
						province_id = 1128 #Arbeloch
					}
					NOT = {
						ROOT = {
							num_of_provinces_owned_or_owned_by_non_sovereign_subjects_with = {
								value = 1
								OR = {
									province_id = 1949 #Spoorland Gap
									province_id = 1042 #Fort Thorn
									province_id = 1031 #Venaine
									province_id = 1128 #Arbeloch
								}
							}
						}
					}
				}
			}
			NOT = { country_or_non_sovereign_subject_holds = ROOT }
		}
		
		trigger = {
			num_of_provinces_owned_or_owned_by_non_sovereign_subjects_with = {
				value = 6
				province_group = ynncliffwalls_upper
			}
			num_of_provinces_owned_or_owned_by_non_sovereign_subjects_with = {
				value = 1
				OR = {
					province_id = 1949 #Spoorland Gap
					province_id = 1042 #Fort Thorn
					province_id = 1031 #Venaine
					province_id = 1128 #Arbeloch
				}
			}
		}
		
		effect = {
			ynnsmouth_area = {
				add_permanent_claim = ROOT
			}
			trollhair_woods_area = {
				add_permanent_claim = ROOT
			}
			umuhit_area = {
				add_permanent_claim = ROOT
			}
		}
	}
	
	eord_4_empire_reborn = {
		icon = mission_arise_ashes 
		position = 15
		required_missions = { eord_4_cliffs_cascades eord_5_winds_magic }
		
		provinces_to_highlight = {
			OR = {
				AND = {
					province_group = ynn_dams_provinces
					NOT = { country_or_non_sovereign_subject_holds = ROOT }
				}
				AND = {
					superregion = ynn_superregion
					NOT = { country_or_non_sovereign_subject_holds = ROOT }
					NOT = {
						ROOT = {
							num_of_provinces_owned_or_owned_by_non_sovereign_subjects_with = {
								superregion = ynn_superregion
								value = 40
							}
						}
					}
				}
			}
		}
		
		trigger = {
			ynn_dams_provinces = {
				type = all
				country_or_non_sovereign_subject_holds = ROOT
			}
			num_of_provinces_owned_or_owned_by_non_sovereign_subjects_with = {
				superregion = ynn_superregion
				value = 40
			}
		}
		
		effect = {
			add_country_modifier = { name = eord_empire_reborn duration = -1 }
		}
	}
	
	eord_4_first_among_ruinborn = {
		icon = mission_swear_fealty_knight 
		position = 16
		required_missions = { eord_4_empire_reborn }
		
		trigger = {
			dip_power = 200
		}
		
		effect = {
			if = {
				limit = {
					any_known_country = {
						culture_group = ynnic_ruinborn_elf
						is_vassal = no
					}
				}
				add_dip_power = -200
				every_known_country = {
					limit = {
						culture_group = ynnic_ruinborn_elf
						is_vassal = no
					}
					country_event = { id = eordand.24 }
				}
			}
			else = {
				add_prestige = 25
			}
		}
	}
	eord_4_protect_boek = {
		icon = mission_nah_the_enemy_way 
		position = 18
		required_missions = { eord_5_mouth_ynn }
		
		trigger = {
			dip_power = 100
		}
		
		effect = {
			if = {
				limit = {
					any_known_country = {
						culture_group = north_ruinborn_elf
						is_vassal = no
					}
				}
				add_dip_power = -100
				every_known_country = {
					limit = {
						culture_group = north_ruinborn_elf
						is_vassal = no
					}
					country_event = { id = eordand.24 }
				}
			}
			else = {
				add_prestige = 20
			}
		}
	}
	
	eord_4_disputes_rightful_ownership = {
		icon = mission_sio_european_trade 
		position = 19
		required_missions = { eord_4_protect_boek }
		
		trigger = {
			OR = {
				OR = {
					accepted_culture = sarda
					any_subject_country = {
						primary_culture = sarda
					}
				}
				OR = {
					accepted_culture = boek
					any_subject_country = {
						primary_culture = boek
					}
				}
			}
		}
		
		effect = {
			country_event = { id = eordand.26 }
			custom_tooltip = eordand_disputes_of_rightful_ownership_tt
		}
	}
}

eordand_4_domandrod = {
	slot = 4
	generic = no
	ai = yes
	has_country_shield = yes
	potential = {
		tag = H21
		has_country_flag = eord_seasonal_completed
	}
	
	eord_4_wild_wonderful = {
		icon = mission_amur_acquisition
		position = 21
		required_missions = {
			eord_3_edge_of_feyrealm
		}
		
		provinces_to_highlight = {
			OR = {
				area = domandrod_gladeway_1_area
				area = domandrod_gladeway_4_area
			}
			NOT = { owned_by = ROOT }
		}
		
		trigger = {
			domandrod_gladeway_1_area = {
				owned_by = ROOT
				type = all
			}
			domandrod_gladeway_4_area = {
				owned_by = ROOT
				type = all
			}
		}
		
		effect = {
			add_prestige = 5
			add_country_modifier = {
				name = eord_domandrod_opening
				duration = 5475
			}
			domandrod_gladeway_1_area = {
				add_province_modifier = {
					name = eord_domandrod_development
					duration = -1
				}
			}
			domandrod_gladeway_4_area = {
				add_province_modifier = {
					name = eord_domandrod_development
					duration = -1
				}
			}
		}
	}
}

eordand_deepwoods_conquest_4 = {
	slot = 4
	generic = no
	ai = yes
	has_country_shield = yes
	potential = {
		tag = H21
		has_country_flag = eordand_deepwoods_conquer
	}
	
	eordconq_2_tranquil_waters = {
		icon = mission_pow_powhatan_fleet
		position = 26
		required_missions = { eordconq_3_beachhead_faithful }
		
		provinces_to_highlight = {
			province_group = deepwoods_lake_grove
			NOT = { country_or_non_sovereign_subject_holds = ROOT }
		}
		
		trigger = {
			deepwoods_lake_grove = {
				type = all
				country_or_non_sovereign_subject_holds = ROOT
			}
		}
		
		effect = {
			add_adm_power = 25
			add_dip_power = 25
			add_mil_power = 25
			bahar_region = {
				discover_country = ROOT
			}
			ourdia_region = {
				discover_country = ROOT
			}
			daravans_folly_region = {
				discover_country = ROOT
			}
			every_owned_province = {
				limit = { 
					province_group = deepwoods_lake_grove
				}
				add_ruinborn_minority_size_effect = yes
			}
		}
	}
}

eordand_deepwoods_ally_4 = {
	slot = 4
	generic = no
	ai = yes
	has_country_shield = yes
	potential = {
		tag = H21
		has_country_flag = eordand_deepwoods_ally
	}
	
	eordally_4_mountainhall_ciranmyna = {
		icon = mission_nah_ravine_dwellers 
		position = 26
		required_missions = { eordally_3_evergreen_pact }
		
		provinces_to_highlight = {
			province_id = 3020
			OR = {
				AND = {
					country_or_non_sovereign_subject_holds = ROOT
					NOT = {
						AND = {
							has_tax_building_trigger = yes
							has_courthouse_building_trigger = yes
							has_fort_building_trigger = yes
						}
					}
				}
				AND = {
					NOT = { country_or_non_sovereign_subject_holds = ROOT }
					NOT = {
						owner = {
							OR = {
								is_subject_of = ROOT
								alliance_with = ROOT
							}
						}
					}
				}
			}
		}
		
		trigger = {
			if = {
				limit = { owns_or_non_sovereign_subject_of = 3020 }
				3020 = {
					has_tax_building_trigger = yes
					has_courthouse_building_trigger = yes
					has_fort_building_trigger = yes
				}
			}
			else = {
				OR = {
					any_ally = {
						owns = 3020
					}
					any_subject_country = {
						owns = 3020
					}
				}
				treasury = 1000
			}
		}
		
		effect = {
			3020 = {
				add_base_tax = 2
				add_base_production = 2
				add_base_manpower = 2
				add_ruinborn_minority_size_effect = yes
			}
			if = {
				limit = {
					OR = {
						any_ally = {
							owns = 3020
						}
						any_subject_country = {
							owns = 3020
						}
					}
				}
				add_treasury = -1000
				3020 = {
					if = {
						limit = { NOT = { has_tax_building_trigger = yes } }
						add_building = temple
					}
					if = {
						limit = { NOT = { has_courthouse_building_trigger = yes } }
						add_building = courthouse
					}
					if = {
						limit = { NOT = { has_fort_building_trigger = yes } }
						add_building = fort_15th
					}
				}
			}
			random_ally = {
				limit = { owns = 3020 }
				add_adm_power = 50
				add_dip_power = 50
				add_mil_power = 50
				add_stability_or_adm_power = yes
			}
			random_subject_country = {
				limit = { owns = 3020 }
				add_adm_power = 50
				add_dip_power = 50
				add_mil_power = 50
				add_stability_or_adm_power = yes
			}
		}
	}
}

eordand_5 = {
	slot = 5
	generic = no
	ai = yes
	has_country_shield = yes
	potential = {
		tag = H21
	}
	
	eord_5_ctc_dtc = {
		icon = mission_rb_conquer_bengal 
		position = 1
		required_missions = {}
		
		trigger = {
			OR = {
				war_with = G98
				war_with = G99
			}
		}
		
		effect = {
			add_country_modifier = { name = eord_ctc_dtc duration = 1825 }
		}
	}
	
	eord_5_great_power_war = {
		icon = mission_rb_rein_in_the_highland_clans 
		position = 2
		required_missions = {}
		
		trigger = {
			any_known_country = {
				is_great_power = yes
				war_with = H21
			}
		}
		
		effect = {
			add_country_modifier = { name = eord_gpwar duration = 1825 }
		}
	}
	
	eord_5_precursor_legacy = {
		icon = mission_magical_forest
		position = 3
		required_missions = { }
		
		trigger = {
			production_leader = {
				trade_goods = precursor_relics
			}
		}
		
		effect = {
			add_stability_or_adm_power = yes
			add_adm_power = 25
			add_dip_power = 25
			add_mil_power = 25
		}
	}
	
	eord_5_armonadh_borderland = {
		icon = mission_rb_colonise_canada
		position = 6
		required_missions = { }
		
		provinces_to_highlight = {
			OR = {
				area = armonadh_area
				area = anholtir_area
			}
			NOT = { owned_by = ROOT }
		}
		
		trigger = {
			armonadh_area = {
				owned_by = ROOT
				type = all
			}
			anholtir_area = {
				owned_by = ROOT
				type = all
			}
		}
		
		effect = {
			country_event = { id = eordand.27 }
			pomvasonn_area = {
				add_permanent_claim = ROOT
			}
			munapeim_area = {
				add_permanent_claim = ROOT
			}
			custom_tooltip = eordand_deep_beneath_the_armonadh_tt
		}
	}
	
	eord_5_beyond_mountains = {
		icon = alpine_defenses
		position = 7
		required_missions = { eord_4_randrunnse eord_5_armonadh_borderland }
		
		provinces_to_highlight = {
			OR = {
				area = pomvasonn_area
				area = munapeim_area
			}
			NOT = { country_or_non_sovereign_subject_holds = ROOT }
		}
		
		trigger = {
			num_of_provinces_owned_or_owned_by_non_sovereign_subjects_with = {
				OR = {
					area = pomvasonn_area
					area = munapeim_area
				}
				value = 5
			}
		}
		
		effect = {
			svemel_area = {
				add_permanent_claim = ROOT
			}
			drozmajaivn_area = {
				add_permanent_claim = ROOT
			}
			juzondezan_area = {
				add_permanent_claim = ROOT
			}
			pomvasonn_area = {
				add_permanent_claim = ROOT
			}
		}
	}
	
	eord_5_lands_unbridled_winter = {
		icon = mission_rb_settle_the_north
		position = 8
		required_missions = { eord_5_beyond_mountains }
		
		provinces_to_highlight = {
			region = broken_isles_region
			NOT = { country_or_non_sovereign_subject_holds = ROOT }
		}
		
		trigger = {
			num_of_provinces_owned_or_owned_by_non_sovereign_subjects_with = {
				region = broken_isles_region
				value = 8
			}
		}
		
		effect = {
			add_country_modifier = { name = colonial_enthusiasm duration = 9125 }
			ledtocin_area = {
				add_permanent_claim = ROOT
			}
			zamrobst_area = {
				add_permanent_claim = ROOT
			}
			cymailean_area = {
				add_permanent_claim = ROOT
			}
		}
	}
	
	eord_5_establish_winter_city = {
		icon = mission_conquer_moscow
		position = 9
		required_missions = { eord_5_lands_unbridled_winter }
		
		provinces_to_highlight = {
			OR = {
				AND = {
					OR = {
						province_id = 1753
						province_id = 1770
					}
					NOT = { is_core = ROOT }
				}
				AND = {
					province_id = 1753
					NOT = {
						AND = {
							has_merchant = ROOT
							has_trade_building_trigger = yes
						}
					}
				}
			}
		}
		
		trigger = {
			1753 = {
				is_core = ROOT
				has_merchant = ROOT
				has_trade_building_trigger = yes
			}
			1770 = {
				is_core = ROOT
			}
		}
		
		effect = {
			1753 = {
				center_of_trade = 1
				add_base_tax = 1
				add_base_production = 1
				add_base_manpower = 1
				change_province_name = "Eighpekann"
				rename_capital = "Eighpekann"
			}
			themaria_area = {
				add_permanent_claim = ROOT
			}
			reithemar_area = {
				add_permanent_claim = ROOT
			}
			morail_area = {
				add_permanent_claim = ROOT
			}
		}
	}
	
	eord_5_repair_broken_sea = {
		icon = mission_protect_white_sea_trade
		position = 10
		required_missions = { eord_5_establish_winter_city }
		
		provinces_to_highlight = {
			OR = {
				AND = {
					region = broken_isles_region
					NOT = { country_or_non_sovereign_subject_holds = ROOT }
				}
				AND = {
					province_id = 1753
					NOT = { has_most_province_trade_power = ROOT }
				}
			}
		}
		
		trigger = {
			broken_isles_region = {
				type = all
				country_or_non_sovereign_subject_holds = ROOT
			}
			1753 = {
				has_most_province_trade_power = ROOT
			}
		}
		
		effect = {
			broken_isles_region = {
				limit = { province_has_center_of_trade_of_level = 1 }
				add_center_of_trade_level = 1
				add_province_modifier = { name = eord_broken_sea duration = -1 }
			}
		}
	}
	
	eord_5_fractured_chivalry = {
		icon = the_hundred_years_war
		position = 11
		required_missions = { eord_4_headwaters_ynn eord_5_repair_broken_sea }
		
		provinces_to_highlight = {
			region = dolindha_region
			NOT = { country_or_non_sovereign_subject_holds = ROOT }
		}
		
		trigger = {
			num_of_provinces_owned_or_owned_by_non_sovereign_subjects_with = {
				region = dolindha_region
				value = 15
			}
		}
		
		effect = {
			dolindha_region = {
				add_permanent_claim = ROOT
			}
			add_country_modifier = { name = eord_dolindhan_mounts duration = -1 }
		}
	}
}

eordand_spring_5 = {
	slot = 5
	generic = no
	ai = yes
	has_country_shield = yes
	potential = {
		tag = H21
		religion = spring_court
	}
	
	eordspring_5_gardens_grebniesth = {
		icon = mission_che_botanical_exports
		position = 12
		required_missions = { eord_5_fractured_chivalry }
		
		provinces_to_highlight = {
			province_id = 1182
			NOT = {
				AND = {
					is_core = ROOT
					has_manufactory_trigger = yes
				}
			}
		}
		
		trigger = {
			1182 = {
				is_core = ROOT
				has_manufactory_trigger = yes
			}
		}
		
		effect = {
			1182 = {
				change_trade_goods = incense
				change_culture = selphereg
			}
			set_country_flag = eord_gardens
			set_country_flag = eord_seasonal_ynn_completed
			country_event = { id = eordand.28 }
			custom_tooltip = eordand_transformations_of_the_gardens_tt
		}
	}
}

eordand_summer_5 = {
	slot = 5
	generic = no
	ai = yes
	has_country_shield = yes
	potential = {
		tag = H21
		religion = summer_court
	}
	
	eordsummer_5_sunken_city = {
		icon = mission_look_west
		position = 12
		required_missions = { eord_5_fractured_chivalry }
		
		provinces_to_highlight = {
			province_id = 1188
			NOT = {
				AND = {
					is_core = ROOT
					has_trade_building_trigger = yes
				}
			}
		}
		
		trigger = {
			1188 = {
				is_core = ROOT
				has_trade_building_trigger = yes
			}
			OR = {
                treasury = 1500
                years_of_income = 1
            }
		}
		
		effect = {
			if = {
                limit = {
                    years_of_income = 1
                    NOT = { treasury = 1500 }
                }
                add_years_of_income = -1
            }
            else_if = {
                limit = {
                    treasury = 1500
                }
                add_treasury = -1500
            }
			1188 = {
				add_base_tax = 1
				add_base_production = 1
				add_base_manpower = 1
				change_culture = caamas
			}
			set_country_flag = eord_sunken_city
			set_country_flag = eord_seasonal_ynn_completed
			country_event = { id = eordand.29 }
			custom_tooltip = eordand_treasures_of_the_sunken_city_tt
		}
	}
}

eordand_autumn_5 = {
	slot = 5
	generic = no
	ai = yes
	has_country_shield = yes
	potential = {
		tag = H21
		religion = autumn_court
	}
	
	eordautumn_5_reclaim_dracball = {
		icon = mission_burning_castle
		position = 12
		required_missions = { eord_5_fractured_chivalry }
		
		provinces_to_highlight = {
			province_id = 1820
			NOT = {
				AND = {
					is_core = ROOT
					has_fort_building_trigger = yes
				}
			}
		}
		
		trigger = {
			1820 = {
				is_core = ROOT
				has_fort_building_trigger = yes
			}
			OR = {
				mil = 5
				has_mil_advisor_2 = yes
			}
		}
		
		effect = {
			if = {
				limit = { NOT = { mil = 6 } }
				change_mil = 1
			}
			else = {
				add_mil_power = 50
			}
			1820 = {
				change_culture = tuathak
			}
			set_country_flag = eord_dracball
			set_country_flag = eord_seasonal_ynn_completed
			country_event = { id = eordand.30 }
			custom_tooltip = eordand_sword_of_legend_tt
		}
	}
}

eordand_winter_5 = {
	slot = 5
	generic = no
	ai = yes
	has_country_shield = yes
	potential = {
		tag = H21
		religion = winter_court
	}
	
	eordwinter_5_winters_clemency = {
		icon = mission_feast
		position = 12
		required_missions = { eord_5_fractured_chivalry }
		
		provinces_to_highlight = {
			province_id = 1753
			NOT = {
				AND = {
					is_core = ROOT
					has_dock_building_trigger = yes
				}
			}
		}
		
		trigger = {
			1753 = {
				is_core = ROOT
				has_dock_building_trigger = yes
			}
			accepted_culture = rzentur
			dip_power = 100
		}
		
		effect = {
			add_dip_power = -100
			1753 = {
				change_culture = snecboth
			}
			set_country_flag = eord_winters_clemency
			set_country_flag = eord_seasonal_ynn_completed
			country_event = { id = eordand.31 }
			custom_tooltip = eordand_sharing_winters_clemency_tt
		}
	}
}

eordand_eordellon_5 = {
	slot = 5
	generic = no
	ai = yes
	has_country_shield = yes
	potential = {
		tag = H21
		religion = eordellon
	}
	
	eordellon_5_antlered_king = {
		icon = mission_divine_legion
		position = 12
		required_missions = { eord_5_fractured_chivalry }
		
		provinces_to_highlight = {
			OR = {
				AND = {
					OR = {
						province_id = 2813
						province_id = 1167
					}
					NOT = { is_core = ROOT }
				}
				AND = {
					province_id = 2813
					NOT = { has_courthouse_building_trigger = yes }
				}
			}
		}
		
		trigger = {
			2813 = {
				is_core = ROOT
				has_courthouse_building_trigger = yes
			}
			1167 = {
				is_core = ROOT
			}
			adm_power = 50
			dip_power = 50
		}
		
		effect = {
			add_adm_power = -50
			add_dip_power = -50
			2813 = {
				add_base_tax = 1
				add_base_production = 1
				add_base_manpower = 1
				change_culture = peitar
			}
			1167 = {
				change_trade_goods = livestock
				change_culture = peitar
			}
			set_country_flag = eord_antlered_king
			set_country_flag = eord_seasonal_ynn_completed
			country_event = { id = eordand.32 }
			custom_tooltip = eordand_the_antlered_king_tt
		}
	}
}

eordand_5_2 = {
	slot = 5
	generic = no
	ai = yes
	has_country_shield = yes
	potential = {
		tag = H21
	}
	
	eord_5_remove_curse = {
		icon = mission_alone_in_the_wood
		position = 13
		required_missions = { 
		}
		
		provinces_to_highlight = {
			region = forest_of_the_cursed_ones_region
			NOT = { owned_by = ROOT }
		}
		trigger = {
			custom_trigger_tooltip = {
				tooltip = eord_ynnmissions_tooltip
				has_country_flag = eord_seasonal_ynn_completed
			}
			num_of_provinces_owned_or_owned_by_non_sovereign_subjects_with = {
				region = forest_of_the_cursed_ones_region
				value = 10
			}
		}
		effect = {
			dalaire_region = {
				add_permanent_claim = ROOT
			}
		}
	}
	
	eord_5_winds_magic = {
		icon = mission_delighted_mage
		position = 14
		required_missions = { eord_5_remove_curse }
		
		provinces_to_highlight = {
			OR = {
				province_id = 1202
				province_id = 1201
			}
			NOT = { country_or_non_sovereign_subject_holds = ROOT }
		}
		
		trigger = {
			owns_or_non_sovereign_subject_of = 1202
			owns_or_non_sovereign_subject_of = 1201
			num_of_owned_provinces_with = {
				region = dalaire_region
				value = 10
			}
			1201 = {
				NOT = { has_construction = any }
			}
		}
		
		effect = {
			1201 = {
				add_building_construction = {
					building = mage_tower
					speed = 1
					cost = 0.5
				}
			}
		}
	}
	
	eord_5_tainted_winter = {
		icon = mission_protect_white_sea_trade
		position = 15
		required_missions = { eord_5_winds_magic }
		
		provinces_to_highlight = {
			province_id = 2787
			NOT = {
				AND = {
					is_core = ROOT
					has_building = mage_tower
				}
			}
		}
		
		trigger = {
			2787 = {
				is_core = ROOT
				has_building = mage_tower
			}
			OR = {
				AND = {
					adm_power = 50
					dip_power = 50
					mil_power = 50
				}
				treasury = 1000
			}
		}
		
		effect = {
			if = {
				limit = {
					adm_power = 50
					dip_power = 50
					mil_power = 50
				}
				add_adm_power = -50
				add_dip_power = -50
				add_mil_power = -50
			}
			else = {
				add_treasury = -1000
			}
			2787 = {
				add_province_modifier = { name = eord_dalairey_wastes duration = -1 }
			}
			country_event = { id = eordand.33 }
			custom_tooltip = eordand_the_dalairey_expedition_help_wanted_tt
		}
	}
	
	eord_5_secure_cliffbase = {
		icon = mission_che_the_cave_country
		position = 16
		required_missions = { eord_4_empire_reborn }
		
		provinces_to_highlight = {
			province_group = ynncliffwalls_lower
			NOT = { country_or_non_sovereign_subject_holds = ROOT }
		}
		
		trigger = {
			num_of_provinces_owned_or_owned_by_non_sovereign_subjects_with = {
				province_group = ynncliffwalls_lower
				value = 6
			}
		}
		
		effect = {
			trollsmaw_swamp_area = {
				add_permanent_claim = ROOT
			}
			zanlib_area = {
				add_permanent_claim = ROOT
			}
			boek_river_area = {
				add_permanent_claim = ROOT
			}
			yanekin_area = {
				add_permanent_claim = ROOT
			}
		}
	}
	
	eord_5_mouth_ynn = {
		icon = mission_advance_to_the_dnieper
		position = 17
		required_missions = { eord_4_first_among_ruinborn eord_5_secure_cliffbase }
		
		provinces_to_highlight = {
			area = ynnsmouth_area
			NOT = { owned_by = ROOT }
		}
		
		trigger = {
			ynnsmouth_area = {
				type = all
				owned_by = ROOT
			}
		}
		
		effect = {
			1028 = {
				add_trade_modifier = {
					who = ROOT
					duration = -1
					power = 25
					key = STRONG_MERCHANTS
				}
			}
			trollsbay_region = {
				add_permanent_claim = ROOT
			}
		}
	}
	
	eord_5_bay_false_trolls = {
		icon = overshadow_venice
		position = 18
		required_missions = { eord_5_mouth_ynn }
		
		provinces_to_highlight = {
			OR = {
				AND = {
					region = trollsbay_region
					NOT = { country_or_non_sovereign_subject_holds = ROOT }
					NOT = {
						ROOT = {
							num_of_provinces_owned_or_owned_by_non_sovereign_subjects_with = {
								region = trollsbay_region
								value = 15
							}
						}
					}
				}
				AND = {
					province_id = 1028
					NOT = { has_most_province_trade_power = ROOT }
				}
			}
		}
		trigger = {
			num_of_provinces_owned_or_owned_by_non_sovereign_subjects_with = {
				region = trollsbay_region
				value = 15
			}
			1028 = {
				has_most_province_trade_power = ROOT
			}
		}
		
		effect = {
			add_country_modifier = {
				name = eord_false_trolls
				duration = 18250
			}
		}
	}
	
	eord_5_colonies_cannorians = {
		icon = dominant_economy
		position = 19
		required_missions = { eord_5_bay_false_trolls }
		
		provinces_to_highlight = {
			region = trollsbay_region
			province_has_center_of_trade_of_level = 1
			NOT = {
				AND = {
					has_trade_building_trigger = yes
					country_or_non_sovereign_subject_holds = ROOT
				}
			}
		}
		
		trigger = {
			trollsbay_region = {
				type = all
				OR = {
					NOT = { province_has_center_of_trade_of_level = 1 }
					AND = {
						country_or_non_sovereign_subject_holds = ROOT
						has_trade_building_trigger = yes
					}
				}
			}
		}
		
		effect = {
			add_country_modifier = {
				name = eord_trollsbay_colonist_legacy
				duration = -1
			}
			bloodgroves_region = {
				add_permanent_claim = ROOT
			}
		}
	}
	
	eord_5_bloody_glades = {
		icon = mission_mounted_battle
		position = 20
		required_missions = { eord_4_disputes_rightful_ownership eord_5_colonies_cannorians }
		
		provinces_to_highlight = {
			OR = {
				AND = {
					region = bloodgroves_region
					NOT = { country_or_non_sovereign_subject_holds = ROOT }
				}
				AND = {
					OR = {
						province_id = 2557
						province_id = 1016
					}
					NOT = {
						ROOT = {
							owns_or_non_sovereign_subject_of = 2557
							owns_or_non_sovereign_subject_of = 1016
						}
					}
				}
			}
		}
		
		trigger = {
			num_of_provinces_owned_or_owned_by_non_sovereign_subjects_with = {
				region = bloodgroves_region
				value = 20
			}
			OR = {
				owns_or_non_sovereign_subject_of = 2557
				owns_or_non_sovereign_subject_of = 1016
			}
		}
		
		effect = {
			north_ruined_isles_region = {
				add_permanent_claim = ROOT
			}
			endralliande_region = {
				add_permanent_claim = ROOT
			}
		}
	}
	eord_5_rebirth_noruin = {
		icon = mission_magic_tower
		position = 21
		required_missions = { eord_5_bloody_glades }
		
		provinces_to_highlight = {
			continent = north_america
			NOT = { country_or_non_sovereign_subject_holds = ROOT }
		}
		
		trigger = {
			stability = 2
			num_of_provinces_owned_or_owned_by_non_sovereign_subjects_with = {
				continent = north_america
				value = 200
			}
			is_great_power = yes
		}
		
		effect = {
			add_country_modifier = { name = eord_rebirth_aelantir duration = -1 }
			add_splendor = 800
			ruin_proper_superregion = {
				add_permanent_claim = ROOT
			}
			ynn_superregion = {
				add_permanent_claim = ROOT
			}
			torn_gates_superregion = {
				add_permanent_claim = ROOT
			}
			broken_lands_superregion = {
				add_permanent_claim = ROOT
			}
		}
	}
}

eordand_5_domandrod = {
	slot = 5
	generic = no
	ai = yes
	has_country_shield = yes
	potential = {
		tag = H21
		has_country_flag = eord_seasonal_completed
	}
	
	eord_1_primeval_golden_acres = {
		icon = mission_alone_in_the_forest_2 
		position = 23
		required_missions = {}
		
		provinces_to_highlight = {
			OR = {
				AND = {
					area = domandrod_gladeway_4_area
					OR = {
						NOT = { owned_by = ROOT }
						NOT = {
							ROOT = {
								development_in_provinces = {
									area = domandrod_gladeway_4_area
									value = 30
								}
							}
						}
					}
				}
				AND = {
					province_id = 6557
					NOT = {
						AND = {
							owned_by = ROOT
							development = 15
						}
					}
				}
			}
		}
		
		trigger = {
			domandrod_gladeway_4_area = {
				owned_by = ROOT
				type = all
			}
			development_in_provinces = {
				area = domandrod_gladeway_4_area
				value = 30
			}
			6557 = {
				owned_by = ROOT
				development = 15
			}
		}
		
		effect = {
			domandrod_gladeway_4_area = {
				add_province_modifier = { name = eord_autumn_glade duration = -1 }
			}
			6557 = {
				add_province_modifier = { name = eord_autumn_city duration = -1 }
				center_of_trade = 1
			}
		}
	}
	
	eord_1_comfort_of_winter = {
		icon = mission_rb_colonise_canada 
		position = 24
		required_missions = {}
		
		provinces_to_highlight = {
			OR = {
				AND = {
					area = domandrod_gladeway_1_area
					OR = {
						NOT = { owned_by = ROOT }
						NOT = {
							ROOT = {
								development_in_provinces = {
									area = domandrod_gladeway_1_area
									value = 30
								}
							}
						}
					}
				}
				AND = {
					province_id = 6554
					NOT = {
						AND = {
							owned_by = ROOT
							development = 15
						}
					}
				}
			}
		}
		
		trigger = {
			domandrod_gladeway_1_area = {
				owned_by = ROOT
				type = all
			}
			development_in_provinces = {
				area = domandrod_gladeway_1_area
				value = 30
			}
			6554 = {
				owned_by = ROOT
				development = 15
			}
		}
		
		effect = {
			domandrod_gladeway_1_area = {
				add_province_modifier = { name = eord_winter_glade duration = -1 }
			}
			6554 = {
				add_province_modifier = { name = eord_winter_city duration = -1 }
				center_of_trade = 1
			}
		}
	}
}
